<?xml version="1.0" standalone="no"?>
<!DOCTYPE svg PUBLIC "-//W3C//DTD SVG 1.1//EN" "http://www.w3.org/Graphics/SVG/1.1/DTD/svg11.dtd" >
<!--
2017-5-25: Created with FontForge (http://fontforge.org)
-->
<svg xmlns="http://www.w3.org/2000/svg" xmlns:xlink="http://www.w3.org/1999/xlink" version="1.1">
<metadata>
Created by FontForge 20160405 at Thu May 25 08:09:23 2017
 By Apache
Copyright (c) 2017, Apache
</metadata>
<defs>
<font id="Flaticon" horiz-adv-x="512" >
  <font-face 
    font-family="Flaticon"
    font-weight="400"
    font-stretch="normal"
    units-per-em="512"
    panose-1="2 0 5 3 0 0 0 0 0 0"
    ascent="448"
    descent="-64"
    bbox="-4.844e-05 -64.002 512 448"
    underline-thickness="25.6"
    underline-position="-51.2"
    unicode-range="U+0020-F127"
  />
    <missing-glyph />
    <glyph glyph-name="space" unicode=" " horiz-adv-x="200" 
 />
    <glyph glyph-name="uniF108" unicode="&#xf108;" 
d="M0 346.346h512v-115.629c0 -106.455 -86.6084 -193.062 -193.063 -193.062h-125.873c-106.455 0 -193.063 86.6074 -193.063 193.062v115.629zM408.674 287.362c-1.67383 -4.55176 -3.05469 -9.31836 -4.20117 -14.1094h19.0273v10.1641h30v-10.1641h20.5967
c-4.95801 21.0645 -14.4746 41.6182 -32.7246 43.0928v-0.000976562h-4.88867c-6.4541 -0.535156 -18.6875 -4.17676 -27.8096 -28.9824zM389.351 316.346h-17.8828c3.37793 -5.01953 6.55762 -10.8428 9.46191 -17.5547c2.53906 6.71777 5.37305 12.5342 8.4209 17.5547z
M315.582 316.346c-20.0342 -1.44238 -31.4785 -21.041 -38.0098 -43.0928h25.3828v10.1641h30v-10.1641h25.3818c-6.53418 22.0264 -17.9756 41.6504 -37.9951 43.0928h-4.75977zM271.376 243.254c-1.50977 -11.1797 -2.10645 -21.042 -2.33789 -27.2275
c-0.157227 -4.17969 1.41113 -8.29102 4.30078 -11.2812c2.875 -2.97363 6.89746 -4.67969 11.0342 -4.67969h66.5605c4.00488 0 7.79395 1.5332 10.6729 4.31738l0.601562 0.582031c3.13379 3.0332 4.83301 7.26367 4.66211 11.6094
c-0.240234 6.07812 -0.841797 15.7256 -2.32617 26.6797h-31.5898v-11.3223h-30v11.3223h-31.5781zM264.453 316.346h-20.8389c3.75488 -5.58008 7.26562 -12.1357 10.4258 -19.8193c3.15723 7.67676 6.66211 14.2422 10.4131 19.8193zM187.729 316.346
c-20.0342 -1.44238 -31.4785 -21.041 -38.0107 -43.0928h25.0986v10.1641h30v-10.1641h25.667c-6.5332 22.0264 -17.9756 41.6504 -37.9941 43.0928h-4.76074zM143.523 243.254c-1.51074 -11.1797 -2.10645 -21.042 -2.33887 -27.2275
c-0.15625 -4.17969 1.41113 -8.29102 4.30176 -11.2812h-0.000976562c2.87598 -2.97363 6.89746 -4.67969 11.0342 -4.67969h66.5615c4.00391 0 7.79395 1.5332 10.6719 4.31738l0.600586 0.582031c3.13477 3.0332 4.83301 7.26367 4.66211 11.6094
c-0.239258 6.07812 -0.841797 15.7256 -2.32422 26.6797h-31.874v-11.3223h-30v11.3223h-31.2939zM136.6 316.346h-15.6133c2.63281 -4.33691 5.10938 -9.25293 7.37207 -14.8447c2.56836 5.57617 5.32812 10.5146 8.24121 14.8447zM40.4893 287.362
c-1.67285 -4.55176 -3.05469 -9.31836 -4.2002 -14.1094h19.7803v10.7432h30v-10.7432h19.8438c-4.95801 21.0645 -14.4746 41.6182 -32.7246 43.0928v-0.000976562h-4.89062c-6.4541 -0.535156 -18.6865 -4.17676 -27.8086 -28.9824zM30.9736 231.877
c-0.114258 -3.04297 1.02539 -6.03418 3.12598 -8.20703c2.0918 -2.16309 5.01562 -3.40332 8.02344 -3.40332h57.374c2.91211 0 5.66797 1.11621 7.76074 3.1416l0.515625 0.498047c2.2793 2.20703 3.5166 5.2832 3.3916 8.43945
c-0.112305 2.8252 -0.314453 6.57031 -0.677734 10.9072h-24.417v-10.7441h-30v10.7441h-24.4043c-0.365234 -4.35547 -0.574219 -8.23438 -0.692383 -11.376zM318.937 67.6543c76.3525 0 140.605 52.752 158.256 123.722
c-3.08398 -0.727539 -6.27051 -1.10938 -9.51074 -1.10938h-57.375c-6.52637 0 -12.9414 1.59473 -18.6914 4.52246c-2.20996 -4.18066 -5.08105 -8.03125 -8.5459 -11.3838l-0.601562 -0.581055c-8.50098 -8.22852 -19.7002 -12.7598 -31.5332 -12.7598h-66.5605
c-11.3164 0 -22.334 4.32617 -30.6494 11.9395c-8.38574 -7.70215 -19.2158 -11.9395 -30.6436 -11.9395h-66.5615c-12.2236 0 -24.1074 5.04102 -32.6035 13.8291c-2.91504 3.01562 -5.3623 6.4209 -7.31934 10.0781c-5.30469 -2.4248 -11.1113 -3.70605 -17.0986 -3.70605
h-57.375c-2.42578 0 -4.83496 0.232422 -7.20312 0.657227c17.8076 -70.7412 81.9531 -123.269 158.144 -123.269h125.873zM475.962 223.911c2.27539 2.20215 3.51172 5.2793 3.38672 8.43555c-0.110352 2.8252 -0.313477 6.56934 -0.678711 10.9062h-25.1699v-11.3223h-30
v11.3223h-23.6523c-0.363281 -4.35547 -0.573242 -8.23438 -0.691406 -11.376c-0.114258 -3.04199 1.02441 -6.03418 3.12598 -8.20703c2.09082 -2.16309 5.01465 -3.40332 8.02246 -3.40332h57.375c2.91211 0 5.66797 1.11621 7.76074 3.14062z" />
    <glyph glyph-name="uniF10C" unicode="&#xf10c;" 
d="M196.655 367.878c78.1807 0 141.785 -63.6055 141.785 -141.786c0 -78.1797 -63.6045 -141.785 -141.785 -141.785c-78.1816 0 -141.785 63.6055 -141.785 141.786c0 78.1816 63.6035 141.785 141.785 141.785zM196.655 114.307
c61.6387 0 111.785 50.1475 111.785 111.786c0 61.6396 -50.1465 111.785 -111.785 111.785s-111.785 -50.1455 -111.785 -111.785c0 -61.6387 50.1455 -111.786 111.785 -111.786zM196.655 312.097c47.4229 0 86.0039 -38.5811 86.0039 -86.0039
s-38.5811 -86.0049 -86.0039 -86.0049s-86.0039 38.582 -86.0039 86.0049s38.5811 86.0039 86.0039 86.0039zM196.655 170.088c30.8809 0 56.0039 25.124 56.0039 56.0049s-25.123 56.0039 -56.0039 56.0039s-56.0039 -25.123 -56.0039 -56.0039
s25.123 -56.0049 56.0039 -56.0049zM451.565 47.9482c38.9717 -16.9922 60.4346 -47.7803 60.4346 -86.6943h-30c0 27.0049 -14.2744 46.9209 -42.4258 59.1943c-13.6807 5.96484 -28.6104 8.98828 -44.3799 8.98828h-198.539c-108.437 0 -196.655 88.2188 -196.655 196.655
c0 108.438 88.2188 196.656 196.656 196.655c108.436 0 196.654 -88.2178 196.654 -196.655c0 -70.1572 -36.9355 -131.84 -92.376 -166.655h94.2607c19.9209 0 38.8867 -3.86426 56.3701 -11.4883zM30 226.092c0 -91.8926 74.7607 -166.655 166.655 -166.655
c91.8926 0 166.654 74.7627 166.654 166.655c0 91.8936 -74.7617 166.655 -166.654 166.655c-91.8945 0 -166.655 -74.7607 -166.655 -166.655z" />
    <glyph glyph-name="uniF124" unicode="&#xf124;" 
d="M415.706 200.041l96.2939 -95.4932l-56.0088 -56.4775l-96.2959 95.4941c-5.73535 -2.47754 -11.6865 -4.44531 -17.8008 -5.875c-1.24219 -4.07812 -2.33008 -8.20215 -3.20508 -12.3447c-2.00586 -9.4873 -3.75488 -19.9785 -5.19824 -31.1787
c-9.90918 -76.8613 -29.8164 -117.32 -59.1689 -120.251c-0.962891 -0.0966797 -1.91895 -0.145508 -2.86328 -0.145508c-16.1445 -0.00195312 -29.4736 14.0488 -39.6553 41.8223c-7.30859 19.9365 -13.0664 46.6133 -16.2129 75.1152
c-2.14453 19.5 -7.37695 30.3232 -11.3887 35.9688c-1.44336 2.0332 -3.46191 2.33594 -4.53711 2.33594s-3.09375 -0.302734 -4.53516 -2.33301c-4.0127 -5.64648 -9.24707 -16.4697 -11.3994 -35.9707c-3.14258 -28.499 -8.89746 -55.1768 -16.2061 -75.1162
c-10.7754 -29.3975 -25.0938 -43.4209 -42.5254 -41.6777c-29.3447 2.93164 -49.25 43.3896 -59.1592 120.252c-1.44043 11.1777 -3.19043 21.6729 -5.19922 31.1934c-4.49023 21.2334 -13.6025 41.1924 -27.0811 59.3164
c-31.9209 42.8994 -41.8154 97.0801 -26.4678 144.935c11.7334 36.5811 36.8115 63.4453 68.8057 73.709c57.1699 18.3291 104.448 -4.2832 123.765 -16.126c19.3145 11.8418 66.5957 34.458 123.771 16.127c36.7979 -11.8076 64.4502 -46.1445 73.0166 -90.2119
c17.7266 -19.5273 27.4854 -44.5723 27.5967 -71.1436c0.0625 -14.6367 -2.81445 -28.834 -8.34082 -41.9238zM309.341 131.546c0.251953 1.19238 0.520508 2.38184 0.797852 3.57129c-25.5928 1.70801 -49.4395 12.4346 -67.833 30.6748
c-20.2275 20.0586 -31.4316 46.7949 -31.5508 75.2812s10.8623 55.3145 30.9219 75.542c20.0586 20.2266 46.7939 31.4316 75.2803 31.5508c0.151367 0.000976562 0.307617 0.000976562 0.458008 0.000976562c12.6904 0 25.042 -2.20898 36.623 -6.43555
c-9.7207 16.0576 -23.5352 27.8125 -39.7637 33.0205c-24.1357 7.73828 -49.041 7.25488 -74.0215 -1.4375c-19.1777 -6.6748 -31.2275 -15.9326 -31.3467 -16.0254l-9.28613 -7.31836l-9.24219 7.35449c-0.0761719 0.0576172 -12.124 9.31641 -31.2988 15.9902
c-24.9775 8.69141 -49.8809 9.17578 -74.0205 1.43652c-22.6543 -7.2666 -40.6602 -27.0596 -49.3975 -54.3027c-12.3975 -38.6543 -4.18457 -82.7158 21.9707 -117.864c16.0801 -21.623 26.9678 -45.5176 32.3633 -71.0234
c2.17285 -10.3027 4.05664 -21.5908 5.60059 -33.5557c9.26465 -71.8564 25.5166 -91.9248 31.5947 -94.0508c2.33789 1.74902 8.10059 9.02539 14.2344 27.9717c5.51855 17.0439 9.95215 39.0889 12.4854 62.0732c2.2959 20.7939 7.93652 37.6348 16.7637 50.0566
c6.65234 9.36719 17.4922 14.96 28.9932 14.96s22.3408 -5.59473 28.9951 -14.9629c8.8291 -12.4258 14.4658 -29.2686 16.752 -50.0586c2.53711 -22.9785 6.97266 -45.0215 12.4902 -62.0645c6.13281 -18.9434 11.8945 -26.2236 14.2334 -27.9766
c6.08203 2.13086 22.3379 22.2012 31.6016 94.0488c1.54688 11.9902 3.43066 23.2773 5.60156 33.543zM371.819 187.544l0.00976562 0.00976562c14.4131 14.5371 22.3037 33.8154 22.2178 54.2861c-0.0849609 20.4746 -8.13867 39.6885 -22.6758 54.1045
c-14.459 14.3398 -33.6104 22.2236 -53.9609 22.2236c-0.110352 0 -0.219727 0 -0.330078 -0.000976562c-20.4727 -0.0859375 -39.6875 -8.13867 -54.1045 -22.6758c-14.416 -14.5381 -22.3086 -33.8184 -22.2227 -54.291
c0.0849609 -20.4746 8.1377 -39.6875 22.6758 -54.1045c14.459 -14.3398 33.6104 -22.2236 53.9609 -22.2236c0.111328 0 0.220703 0 0.331055 0.000976562c20.4707 0.0849609 39.6826 8.13672 54.0986 22.6709zM455.814 90.498l13.7578 13.873l-69.5674 68.9883
l-13.7568 -13.8721z" />
    <glyph glyph-name="uniF116" unicode="&#xf116;" 
d="M401.104 139.152h110.896v-30.1201h-121.19c-3.40723 -6.93359 -7.47559 -13.6406 -12.209 -20.0059c-9.3125 -12.5273 -15.6006 -26.29 -18.6885 -40.9072c-1.41992 -6.71973 -2.65527 -14.1279 -3.67188 -22.0195
c-7.49902 -58.1768 -22.6328 -87.6064 -46.2666 -89.9697c-0.867188 -0.0869141 -1.72656 -0.129883 -2.57324 -0.129883c-13.5156 0 -24.4023 11.0244 -32.3916 32.8193c-5.35547 14.6123 -9.56836 34.1035 -11.8604 54.8809
c-1.39648 12.6455 -4.60547 19.6758 -7.14844 23.4082c-2.54883 -3.74316 -5.75391 -10.7734 -7.14844 -23.4082c-2.29297 -20.7783 -6.50586 -40.2686 -11.8613 -54.8809c-8.48926 -23.1611 -20.248 -34.1582 -34.9629 -32.6895
c-23.6348 2.36426 -38.7686 31.793 -46.2666 89.9697c-1.0166 7.89355 -2.25293 15.3027 -3.67285 22.0234c-3.09082 14.6299 -9.36816 28.3779 -18.6572 40.8623c-4.74707 6.37891 -8.82422 13.0986 -12.2393 20.0479h-121.191v30.1191h110.896
c-3.89844 19.2539 -3.0498 39.0908 2.90723 57.6611c8.84375 27.5693 27.8428 47.8467 52.123 55.6338c9.52734 3.05469 18.6826 4.57031 27.3271 5.00684l11.374 56.0537h-52.6299l104.002 134.492l104.003 -134.491h-52.6299l11.374 -56.0547
c8.64355 -0.436523 17.7988 -1.95215 27.3262 -5.00684c24.2734 -7.78516 43.2705 -28.0557 52.1172 -55.6143c5.96289 -18.5752 6.81348 -38.4199 2.91309 -57.6807zM256 398.764l-42.6367 -55.1357h28.1084l-18.0449 -88.9297
c14.0186 -3.27344 25.2676 -8.68652 32.5732 -12.917c7.30566 4.22949 18.5547 9.64355 32.5732 12.916l-18.0449 88.9297h28.1084zM354.428 106.996c0.500977 0.673828 0.989258 1.35352 1.4707 2.03711h-199.799c0.489258 -0.693359 0.985352 -1.38379 1.49414 -2.06836
c11.9043 -15.998 19.9658 -33.7002 23.9619 -52.6152c1.58594 -7.50488 2.95703 -15.7129 4.07715 -24.3994c5.10254 -39.5908 13.377 -56.6299 17.8457 -62.0566c4.61426 7.15918 11.9258 27.2969 15.4355 59.1094c1.72656 15.6455 6.02734 28.3994 12.7832 37.9092
c5.57812 7.85254 14.6631 12.542 24.3018 12.542c9.6377 0 18.7227 -4.68945 24.3018 -12.543c6.75488 -9.50781 11.0566 -22.2627 12.7832 -37.9082c3.51074 -31.8125 10.8213 -51.9502 15.4346 -59.1104c4.46973 5.42676 12.7441 22.4668 17.8477 62.0566
c1.12012 8.68359 2.49121 16.8916 4.07617 24.3945c3.99219 18.8994 12.0625 36.6143 23.9854 52.6523zM370.181 139.152c4.41016 16.127 4.31543 32.9492 -0.667969 48.4746c-5.83887 18.1875 -17.7334 31.3594 -32.6357 36.1377
c-39.7861 12.7578 -71.2422 -11.5264 -71.5547 -11.7734l-9.32227 -7.34863l-9.32227 7.34766c-1.23926 0.955078 -32.2539 24.3779 -71.5537 11.7744c-14.9072 -4.7793 -26.8037 -17.957 -32.6396 -36.1514c-4.97949 -15.5225 -5.07324 -32.3389 -0.664062 -48.4609h228.36
z" />
    <glyph glyph-name="uniF11B" unicode="&#xf11b;" 
d="M383.819 262.1c0 -16.916 -12.8965 -30.876 -29.373 -32.5674v-188.448c16.4766 -1.69141 29.373 -15.6514 29.373 -32.5674v-39.7773c0 -18.0527 -14.6865 -32.7393 -32.7393 -32.7393h-190.159c-18.0518 0 -32.7393 14.6865 -32.7393 32.7393v39.7773
c0 15.0381 10.1953 27.7324 24.0332 31.5557v190.472c-13.8389 3.82422 -24.0332 16.5176 -24.0332 31.5557v39.7773c0 18.0527 14.6875 32.7393 32.7393 32.7393h41.6494v17.3838h-19.2861v96h143.938v-96h-16.9121v-17.3838h40.7705
c18.0527 0 32.7393 -14.6865 32.7393 -32.7393v-39.7773zM213.284 418v-36h83.9375v36h-83.9375zM280.31 352h-47.7393v-17.3838h47.7393v17.3838zM353.819 -31.2598h-0.000976562v39.7773c0 1.51074 -1.22852 2.73926 -2.73926 2.73926h-190.159
c-1.50977 0 -2.73926 -1.22852 -2.73926 -2.73926v-39.7773c0 -1.51074 1.22949 -2.73926 2.73926 -2.73926h190.16c1.51172 0 2.73926 1.22852 2.73926 2.73926zM324.445 41.2568h0.000976562v188.104h-142.232v-188.104h142.231zM353.819 262.1v39.7773
c0 1.51074 -1.22754 2.73926 -2.73926 2.73926h-40.7705h-107.74h-41.6494c-1.50977 0 -2.73926 -1.22852 -2.73926 -2.73926v-39.7773c0 -1.50977 1.22949 -2.73926 2.73926 -2.73926h190.16c1.51172 0 2.73926 1.22949 2.73926 2.73926zM197.659 82.0566v100.475h112.649
v-100.475h-112.649zM227.659 152.531v-40.4746h52.6494v40.4746h-52.6494z" />
    <glyph glyph-name="uniF104" unicode="&#xf104;" 
d="M194.816 257.25c55.2783 0 100.25 -44.9727 100.25 -100.251s-44.9717 -100.25 -100.25 -100.25c-55.2793 0 -100.251 44.9717 -100.251 100.25s44.9727 100.251 100.251 100.251zM194.816 86.749c38.7363 0 70.251 31.5137 70.25 70.25
c0 38.7363 -31.5137 70.251 -70.25 70.251c-38.7373 0 -70.251 -31.5146 -70.251 -70.251s31.5146 -70.25 70.251 -70.25zM194.816 210c29.2246 0 53.001 -23.7764 53 -53.001c0 -29.2246 -23.7754 -53 -53 -53c-29.2256 0 -53.001 23.7754 -53.001 53
s23.7754 53.001 53.001 53.001zM194.816 133.999c12.6826 0 23.001 10.3174 23 23c0 12.6826 -10.3174 23.001 -23 23.001c-12.6836 0 -23.001 -10.3184 -23.001 -23.001s10.3174 -23 23.001 -23zM506.479 55.5283h5.52148v-30h-5.51953
c-40.0156 0 -72.5703 32.5537 -72.5703 72.5693v40.626c0 27.5049 -18.832 50.6895 -44.2773 57.3496v-238.85h-389.633v283.552c0 102.561 83.4395 186 186 186h17.6318c102.562 0 186 -83.4404 186 -186v-14.042c42.1104 -7.15527 74.2773 -43.8945 74.2773 -88.0107
v-40.626c0 -23.4727 19.0967 -42.5693 42.5693 -42.5684v0zM359.633 -12.7754v210.775h-22.5977c3.76074 -13.0254 5.78223 -26.7812 5.78223 -41.001c0 -81.6074 -66.3926 -148 -148 -148c-81.6084 0 -148.001 66.3926 -148.001 148
c0 14.2197 2.02051 27.9756 5.78125 41.001h-22.5977v-210.775h329.633zM76.8164 156.999c0 -65.0654 52.9355 -118 118.001 -118c65.0645 0 118 52.9346 118 118c0 65.0664 -52.9365 118.001 -118.001 118.001c-65.0654 0 -118 -52.9346 -118 -118.001zM359.633 228
v12.7754c0 86.0186 -69.9805 156 -156 156h-17.6328c-86.0186 0 -156 -69.9814 -156 -156v-12.7754h34.9922c25.1748 45.8496 73.9287 77 129.825 77c55.8955 0 104.648 -31.1504 129.823 -77h34.9922z" />
    <glyph glyph-name="uniF117" unicode="&#xf117;" 
d="M160.48 266.3c7.2793 -8.08008 13.5996 -18.2998 18.7998 -30.3896l-27.5605 -11.8506c-3.89941 9.06055 -8.4502 16.5205 -13.5293 22.1504zM108.67 289.75c6.59961 0 13.0098 -0.860352 19.0498 -2.57031l-8.14941 -28.8701
c-3.37988 0.959961 -7.05078 1.44043 -10.9004 1.44043c-4 0 -7.80957 -0.530273 -11.3203 -1.55957l-8.48926 28.7695c6.25977 1.84961 12.9297 2.79004 19.8096 2.79004zM56.3604 265.74l22.4697 -19.8906c-5.0498 -5.68945 -9.56055 -13.1895 -13.4297 -22.29
l-27.6104 11.7305c5.12988 12.0801 11.3799 22.3301 18.5703 30.4502zM512 353.9v-178.49h-22.6504c1.49023 -11.6602 2.25 -22.5703 2.62012 -31.75c0.560547 -14.1797 -4.97949 -27.9805 -15.1797 -37.8604l-0.69043 -0.669922
c-9.36914 -9.07031 -21.7197 -14.0596 -34.7598 -14.0596h-76.7002c-13.1797 0 -26 5.30957 -35.3096 14.6094l-0.570312 -0.549805c-9.37012 -9.07031 -21.7197 -14.0596 -34.75 -14.0596h-76.71c-7.18945 0 -14.2695 1.58008 -20.7402 4.5293
c0.34082 -4.58008 0.570312 -8.90918 0.730469 -12.9092c0.55957 -14.1807 -4.96973 -27.9805 -15.1797 -37.8604l-0.69043 -0.669922c-9.37012 -9.06055 -21.71 -14.0605 -34.75 -14.0605h-76.71c-13.4697 0 -26.5596 5.56055 -35.9297 15.2402
c-8.98047 9.29004 -14.0303 21.8906 -14.0303 34.79c0 0.620117 0.00976562 1.24023 0.0302734 1.86035c0.429688 11.3301 1.4502 25.2695 3.71973 40.04v0.00976562c0.799805 5.2002 1.75 10.4902 2.87988 15.8203c2.08008 9.7793 4.77051 19.6494 8.25 29.0996
c0.320312 0.860352 0.639648 1.71973 0.969727 2.55957l-13.6797 1.59082c0.230469 1.92969 0.469727 3.85938 0.719727 5.75977v0.00390625h-22.8896v177.026h512zM161.25 66.3896c4.08008 3.9502 6.29004 9.45996 6.05957 15.1201
c-1.0791 27.5098 -8.51953 117.28 -58.6396 117.28c-50.3301 0 -57.6299 -90.2598 -58.6602 -117.92c-0.209961 -5.44043 1.83008 -10.7803 5.58984 -14.6797c3.74023 -3.87012 8.98047 -6.09082 14.3604 -6.09082h76.71c5.20996 0 10.1396 2 13.8896 5.62012z
M308.58 127.36c4.08984 3.94922 6.2998 9.45996 6.07031 15.1094c-1.08008 27.5205 -8.52051 117.28 -58.6406 117.28c-50.3301 0 -57.6299 -90.25 -58.6699 -117.91c-0.200195 -5.43945 1.83984 -10.79 5.60059 -14.6797
c3.73926 -3.87012 8.97949 -6.08984 14.3594 -6.08984h76.71c5.20996 0 10.1406 2 13.8799 5.62012zM455.92 127.36c4.08008 3.94922 6.2998 9.45996 6.07031 15.1094c-1.08008 27.5205 -8.52051 117.28 -58.6406 117.28c-50.3301 0 -57.6299 -90.25 -58.6699 -117.91
c-0.199219 -5.43945 1.83984 -10.79 5.60059 -14.6797c3.73926 -3.87012 8.97949 -6.08984 14.3594 -6.08984h76.7002c5.21973 0 10.1504 2 13.8906 5.62012zM482 212.73v111.17h-452v-121.16l20.8701 -4.82031c17.9697 24.79 40.2695 30.8701 57.7998 30.8701
c17.3896 0 39.5 -5.99023 57.4199 -30.3496c2.07031 -2.82031 4.08984 -5.88086 6.03027 -9.20996c0.639648 3.67969 1.37012 7.39941 2.17969 11.1299c2.03027 9.2793 4.62988 18.5996 7.91992 27.5596c18.79 51.1104 50.5 61.8301 73.79 61.8301
c23.1904 0 54.7705 -10.6299 73.5898 -61.2803c0.0302734 -0.0800781 0.0605469 -0.149414 0.0800781 -0.229492c18.8008 50.8398 50.4307 61.5098 73.6699 61.5098c23.1807 0 54.7705 -10.6299 73.5908 -61.2803c1.90918 -5.14941 3.58984 -10.4199 5.05957 -15.7393z" />
    <glyph glyph-name="uniF119" unicode="&#xf119;" 
d="M60.4971 448h391.006l-41.4248 -512h-308.155zM382.408 -34l2.27148 28.0928h-257.36l2.27246 -28.0928h252.816zM387.107 24.0938l16.2529 200.879c-12.4424 -2.38184 -29.4316 -4.69629 -48.4941 -4.69727c-34.3193 -0.000976562 -75.3311 7.49902 -108.558 35.6143
c-25.9727 21.9795 -59.418 32.8115 -99.4023 32.1611c-17.8809 -0.286133 -33.2012 -2.9209 -42.958 -5.0957l20.9434 -258.861h262.216zM405.887 256.192l13.0908 161.808h-325.955l8.48438 -104.876c11.0195 2.24902 26.3174 4.54785 43.917 4.90527
c47.2119 0.958008 88.7988 -12.6113 120.266 -39.2393c46.3105 -39.1885 115.111 -28.3301 140.197 -22.5977z" />
    <glyph glyph-name="uniF105" unicode="&#xf105;" 
d="M406.574 -9.23926c3.97656 -9.86621 3.87207 -20.6992 -0.298828 -30.4951c-4.16895 -9.79199 -11.9033 -17.376 -21.7783 -21.3555c-4.81543 -1.94043 -9.8623 -2.91016 -14.9033 -2.91016c-5.29492 0 -10.584 1.06836 -15.6016 3.2041
c-9.79688 4.16992 -17.3838 11.9043 -21.3643 21.7793l-76.6299 190.482l-76.625 -190.475c-3.98242 -9.88281 -11.5703 -17.6182 -21.3672 -21.7871c-5.0166 -2.13574 -10.3076 -3.2041 -15.6016 -3.2041c-5.04199 0 -10.0869 0.96875 -14.9033 2.91016
c-9.875 3.97852 -17.6094 11.5635 -21.7783 21.3555c-4.16992 9.79492 -4.27344 20.6289 -0.294922 30.5039l87.3564 217.164c-7.95703 11.9941 -12.6074 26.3633 -12.6074 41.8047c0 1.9248 0.0966797 3.82715 0.238281 5.7168l-67.4688 92.3037l73.2695 100.241
l65.084 -47.5605l-38.5078 -52.6807l19.1143 -26.1436c7.5752 2.5459 15.6709 3.94629 24.0928 3.94629s16.5176 -1.40137 24.0928 -3.94629l19.1143 26.1436l-38.5078 52.6807l65.085 47.5605l73.2695 -100.241l-67.4688 -92.3037
c0.141602 -1.88965 0.238281 -3.79199 0.238281 -5.7168c0 -15.4414 -4.65039 -29.8105 -12.6074 -41.8047zM319.268 406.105l-16.6689 -12.1816l33.748 -46.167l-30.1582 -41.251c5.31055 -4.70117 9.95215 -10.1328 13.7803 -16.1367l41.9482 57.3896zM192.032 290.37
c3.82715 6.00488 8.46973 11.4365 13.7812 16.1377l-30.1592 41.251l33.748 46.165l-16.6689 12.1816l-42.6494 -58.3467zM151.561 -27.8105l82.4668 204.981c-6.40137 1.94336 -12.4424 4.71094 -18.0088 8.17969l-82.7764 -205.779
c-0.989258 -2.4541 -0.962891 -5.13672 0.0683594 -7.56055c1.0332 -2.42676 2.94922 -4.30664 5.39746 -5.29199c5.05176 -2.03516 10.8174 0.418945 12.8525 5.4707zM210.159 249.738c0 -25.2773 20.5635 -45.8408 45.8408 -45.8408s45.8408 20.5635 45.8408 45.8408
c0 25.2764 -20.5635 45.8418 -45.8408 45.8418s-45.8408 -20.5654 -45.8408 -45.8418zM378.69 -27.9873c1.03125 2.42285 1.05664 5.10645 0.0722656 7.55273l-82.7793 205.788c-5.56445 -3.46777 -11.6064 -6.23633 -18.0068 -8.17871l82.4668 -204.992
c2.03027 -5.04297 7.79199 -7.5 12.8496 -5.46191c2.44824 0.986328 4.36523 2.86523 5.39746 5.29199z" />
    <glyph glyph-name="uniF120" unicode="&#xf120;" 
d="M445.216 318.849c32.2324 -28.0283 48.457 -72.7334 46.918 -129.282c-1.16016 -42.6758 -12.7754 -90.0449 -32.707 -133.383c-20.2363 -44.002 -47.8213 -81.0283 -77.6758 -104.261l-0.358398 -0.270508c-1.67188 -1.22363 -17.0459 -12.0342 -41.3955 -14.9521
c-3.62109 -0.43457 -7.55762 -0.700195 -11.7734 -0.700195c-19.4697 0 -44.8564 5.66699 -72.2236 26.5713c-33.292 -25.4297 -63.6553 -28.3086 -83.9971 -25.8711c-24.3486 2.91797 -39.7217 13.7285 -41.3945 14.9521l-0.359375 0.270508
c-29.8545 23.2324 -57.4404 60.2598 -77.6758 104.261c-19.9316 43.3389 -31.5469 90.707 -32.707 133.384c-1.53809 56.5488 14.6865 101.254 46.9199 129.281c34.1836 29.7256 69.1494 38.3652 98.5996 38.1592c-12.4268 23.7295 -10.8789 48.7227 -10.7822 50.1064
l0.794922 11.2568l11.0283 2.3623c1.7998 0.384766 44.4609 9.13672 75.3604 -17.7197c5.76758 -5.01367 10.377 -10.6201 14.0586 -16.4316c11.5615 21.9297 32.0244 45.4199 68.21 61.418l12.125 -27.4561c-48.1611 -21.293 -61.6104 -58.2988 -64.9424 -82.9385
c10.5078 5.39453 24.6338 11.3828 41.2031 15.2627c33.6543 7.88379 84.0127 8.37988 132.774 -34.0195v0zM222.113 380.353c-11.4102 9.91699 -26.3545 12.0117 -36.8203 12.0352c1.4873 -10.3652 5.64941 -24.877 17.0605 -34.7949
c11.4014 -9.90918 26.4609 -12.1104 37.0449 -12.2217c-1.58496 10.4629 -5.86816 25.0586 -17.2852 34.9814zM462.147 190.382c0.895508 32.9678 -4.72852 78.0859 -36.6104 105.809h0.000976562c-31.4639 27.3574 -67.2129 36.5918 -106.26 27.4482
c-29.7227 -6.96094 -49.8486 -21.9941 -50.0469 -22.1445l-0.492188 -0.357422l-12.7373 -8.83984l-13.2295 9.19824c-0.175781 0.130859 -21.125 15.6045 -51.0518 22.377c-38.6611 8.74805 -74.0713 -0.566406 -105.255 -27.6797
c-31.8828 -27.7236 -37.5068 -72.8418 -36.6094 -105.81c2.17871 -80.1543 44.5117 -172.299 98.5234 -214.541c3.45312 -2.35352 45.3252 -29.1426 97.6562 17.3965l9.96484 8.8623l9.96484 -8.8623c52.333 -46.5449 94.209 -19.748 97.6582 -17.3965
c54.0098 42.2432 96.3418 134.385 98.5234 214.54z" />
    <glyph glyph-name="uniF109" unicode="&#xf109;" 
d="M373.967 262.425c9.88672 -28.7002 4.98242 -61.7354 -13.1221 -88.3711c-10.5918 -15.584 -17.498 -33.1104 -19.9707 -50.6826c-0.141602 -1.01172 -0.282227 -2.04785 -0.417969 -3.10547c-6.30078 -48.8877 -19.4434 -73.6631 -40.1748 -75.7363
c-28.4238 -2.83594 -38.0088 45.0391 -41.1875 73.834c-0.667969 6.05664 -1.84473 10.3975 -3.09375 13.4814c-1.24902 -3.08398 -2.42578 -7.42383 -3.09375 -13.4814c-3.08691 -27.9717 -12.2148 -73.9512 -38.7939 -73.9551
c-0.783203 -0.000976562 -1.57812 0.0390625 -2.39258 0.120117c-20.7324 2.07324 -33.875 26.8486 -40.1768 75.7402c-0.140625 1.09375 -0.285156 2.16309 -0.432617 3.20996c-2.47656 17.5449 -9.36328 35.0098 -19.917 50.5156
c-18.1299 26.6357 -23.0547 59.6836 -13.1709 88.4023c7.71387 22.417 23.6406 38.9629 43.6963 45.3936c32.8271 10.5273 60.5098 -0.504883 74.2803 -8.16406c13.7695 7.66113 41.4502 18.6953 74.2803 8.16602c20.0469 -6.42871 35.9707 -22.9639 43.6875 -45.3672z
M335.986 190.95c12.8047 18.8379 16.3789 41.8965 9.5625 61.6836c-4.60059 13.3564 -13.5107 23.0283 -24.4473 26.5352c-30.5889 9.80859 -54.8564 -8.41992 -55.875 -9.20215l-9.45703 -7.65625l-9.07324 7.7168c-0.941406 0.719727 -25.208 18.9492 -55.7979 9.1416
c-10.9414 -3.50879 -19.8545 -13.1865 -24.4531 -26.5527c-6.81348 -19.7998 -3.22656 -42.8691 9.59668 -61.707c13.1289 -19.291 21.7158 -41.1533 24.8311 -63.2236c0.164062 -1.16016 0.325195 -2.35254 0.482422 -3.57129
c3.27539 -25.418 8.1084 -39.0928 11.5713 -45.543c3.41113 7.54004 7.80469 22.2705 10.1025 43.0889c1.45996 13.2295 5.13281 24.0635 10.917 32.2041c5.0625 7.12695 13.3066 11.3809 22.0537 11.3809s16.9912 -4.25488 22.0547 -11.3818
c5.7832 -8.13965 9.45703 -18.9736 10.917 -32.2031c2.29688 -20.8184 6.69141 -35.5488 10.1025 -43.0889c3.46289 6.4502 8.29492 20.124 11.5703 45.542c0.151367 1.17383 0.306641 2.31934 0.464844 3.44238c3.10938 22.1064 11.7119 44.0264 24.877 63.3945z
M449.103 331.733l12.3271 -2.25293v-132.216c0 -64.1943 -23.6455 -125.924 -64.876 -169.356c-30.4131 -32.0381 -129.202 -85.7549 -133.393 -88.0264l-7.16113 -3.88184l-7.16113 3.88184c-4.19043 2.27148 -102.979 55.9883 -133.393 88.0264
c-41.2295 43.4326 -64.876 105.162 -64.876 169.356v132.216l12.3271 2.25195c83.7568 15.3027 181.887 105.837 182.867 106.75l10.2354 9.51758l10.2324 -9.51465c0.982422 -0.912109 99.252 -91.4746 182.87 -106.752zM431.372 197.265v107.58
c-72.8359 18.2969 -148.353 79.1592 -175.372 102.519c-27.0195 -23.3594 -102.536 -84.2207 -175.372 -102.519v-107.58c0 -56.5723 20.6357 -110.757 56.6182 -148.662c20.7891 -21.9004 87.1201 -60.8223 118.754 -78.3643
c31.6338 17.542 97.9648 56.4648 118.754 78.3643c35.9824 37.9043 56.6182 92.0898 56.6182 148.662z" />
    <glyph glyph-name="uniF112" unicode="&#xf112;" 
d="M485.825 260.148l26.1748 -26.1445l-21.2354 -21.2148l-26.1865 26.1562c-8.75977 -5.00098 -18.5684 -7.51562 -28.3799 -7.51562c-11.3721 0 -22.7363 3.375 -32.4707 10.0928l-25.3125 -25.2832l13.7041 -13.6885l-196.519 -196.29
c-12.5645 -12.5498 -29.0684 -18.8252 -45.5732 -18.8252c-9.69922 0 -19.3916 2.18457 -28.29 6.51855c-15.4697 -11.1787 -33.9844 -17.2217 -53.3105 -17.2217c-0.520508 0 -1.04102 0.00390625 -1.56348 0.0126953c-23.7783 0.399414 -46.1348 9.87012 -62.9492 26.666
l-3.91406 3.91016l21.2383 21.2129l3.91406 -3.91016c19.7197 -19.6973 49.2656 -23.2666 72.5703 -10.4492c-18.1416 25.1445 -15.9062 60.5205 6.72949 83.1289l196.518 196.292l13.7041 -13.6875l24.6426 24.6143l-22.0186 21.9912l80.8486 80.7539l78.4736 -78.3838
c10.7969 -10.7852 16.7441 -25.125 16.7441 -40.377c0 -10.1143 -2.62891 -19.8174 -7.53906 -28.3584zM318.447 171.394l31.1943 31.1592l-24.3359 24.3086l-24.3359 24.3076l-175.279 -175.077c-13.4189 -13.4033 -13.4189 -35.2129 0 -48.6172
c13.4199 -13.4033 35.2539 -13.4023 48.6729 0l77.9629 77.8721l-24.3369 24.3086l21.2363 21.2129l24.3379 -24.3086l23.6475 23.6211l-24.3369 24.3086l21.2373 21.2129zM357.175 237.454l24.6426 24.6143l-21.2646 21.2393l-24.6416 -24.6133zM455.382 269.343
c10.5791 10.5674 10.5791 27.7607 0 38.3281l-57.2373 57.1699l-38.3711 -38.3281l0.779297 -0.77832l0.197266 0.195312l59.1855 -59.1152c10.6211 -7.95312 25.7949 -7.11328 35.4463 2.52832z" />
    <glyph glyph-name="uniF125" unicode="&#xf125;" 
d="M401.189 175.075c61.1006 0 110.811 -49.709 110.809 -110.812c0 -61.1016 -49.709 -110.811 -110.812 -110.811c-25.6826 0 -49.3516 8.78613 -68.1631 23.5059c-9.33984 -14.2783 -20.3613 -22.123 -32.916 -23.3691
c-1.00195 -0.0996094 -1.99512 -0.149414 -2.97852 -0.149414c-17.0879 -0.000976562 -31.2939 15.127 -42.2549 45.0293c-7.99707 21.8193 -14.2998 51.042 -17.748 82.2852c-2.4043 21.7822 -8.28027 33.9062 -12.7842 40.2412
c-1.97754 2.78418 -4.73535 3.2002 -6.2041 3.2002c-1.46777 0 -4.22559 -0.416016 -6.19922 -3.19434c-4.51465 -6.34863 -10.3955 -18.4795 -12.7979 -40.248c-3.44727 -31.2412 -9.75098 -60.4629 -17.7471 -82.2822
c-11.5898 -31.624 -26.8203 -46.7285 -45.2354 -44.8789c-31.5078 3.15137 -52.959 47.2246 -63.7549 130.996c-1.60156 12.3945 -3.53516 23.9727 -5.74512 34.4082c-4.98047 23.5908 -15.084 45.7363 -30.0332 65.8291c-34.832 46.8096 -45.6318 105.911 -28.8926 158.095
c12.7578 39.7725 39.9932 68.9678 74.7217 80.1055c63.1357 20.2441 115.184 -5.30762 135.686 -18.0537c20.502 12.7451 72.5449 38.2969 135.685 18.0537c34.7188 -11.1357 61.9502 -40.3232 74.71 -80.0801c16.7432 -52.1621 5.96289 -111.248 -28.8359 -158.056
c-2.45996 -3.30664 -4.78223 -6.69238 -6.99121 -10.1357c2.7998 0.211914 5.62891 0.321289 8.48242 0.321289zM297.622 -16.4365c3.18848 0.699219 8.26074 5.27637 13.7705 15.8496c-13.2139 18.2451 -21.0156 40.6533 -21.0156 64.8516
c0 43.7637 25.501 81.6777 62.4229 99.6748c6.07031 13.625 13.7168 26.6797 22.7881 38.877c29.0273 39.043 38.127 87.9941 24.3398 130.946c-9.75977 30.4092 -29.9092 52.5166 -55.2783 60.6533c-65.0586 20.8623 -116.698 -19 -117.213 -19.4062l-9.29785 -7.3291
l-9.29785 7.3291c-0.0927734 0.0722656 -13.4629 10.3574 -34.7549 17.7832c-27.8164 9.70215 -55.5576 10.2471 -82.458 1.62109c-25.3789 -8.13672 -45.5312 -30.251 -55.2891 -60.6719c-13.7842 -42.9697 -4.66699 -91.9365 24.3887 -130.984
c17.5605 -23.6006 29.4443 -49.6904 35.3242 -77.5479c2.375 -11.208 4.44434 -23.585 6.14941 -36.7783c10.5879 -82.1494 29.4268 -103.296 36.457 -104.866c1.41699 0.876953 8.34766 6.25195 16.4365 30.7256c6.28223 19.0059 11.3203 43.7803 14.1865 69.7568
c2.49805 22.6221 8.61035 40.9102 18.1709 54.3545c7.04102 9.91309 18.5156 15.834 30.6885 15.834c12.1738 0 23.6475 -5.92188 30.6924 -15.8389c9.54785 -13.4297 15.6582 -31.7178 18.1572 -54.3496c2.86621 -25.9814 7.90625 -50.7578 14.1885 -69.7637
c8.09766 -24.4912 15.0322 -29.8506 16.4434 -30.7207zM401.189 -16.5039c44.5342 0 80.7676 36.2314 80.7676 80.7676s-36.2334 80.7686 -80.7676 80.7686c-44.5352 0 -80.7676 -36.2334 -80.7676 -80.7686s36.2314 -80.7676 80.7676 -80.7676zM350.643 47.5664v30.043
h100.145v-30.043h-100.145z" />
    <glyph glyph-name="uniF121" unicode="&#xf121;" 
d="M411.19 429.056c25.2842 25.2588 66.4277 25.2598 91.7139 0l-21.2129 -21.1904c-13.5908 13.5742 -35.7002 13.5742 -49.2881 0c-13.5879 -13.5752 -13.5879 -35.6611 0 -49.2363l10.6064 -10.5947l-50.3867 -50.334
c3.98828 -7.44629 6.10352 -15.8057 6.10352 -24.4893c0 -13.8945 -5.41602 -26.957 -15.251 -36.7812l-300.742 -300.43l-73.6377 73.5596l300.744 300.431c9.83398 9.8252 22.9102 15.2344 36.8184 15.2344c8.81152 0 17.2871 -2.17773 24.8174 -6.26855l30.3457 30.3135
c-15.3896 24.9619 -12.2676 58.1738 9.36914 79.7861zM82.7334 -21.6182l31.21 31.1777l-31.21 31.1787l-31.21 -31.1787zM362.263 257.621c4.16895 4.16406 6.46387 9.7002 6.46289 15.5889c0 5.8877 -2.2959 11.4238 -6.46387 15.5879
c-4.16797 4.16504 -9.70996 6.45801 -15.6045 6.45801s-11.4365 -2.29297 -15.6045 -6.45703l-227.106 -226.87l31.21 -31.1777z" />
    <glyph glyph-name="uniF110" unicode="&#xf110;" 
d="M480.613 357.632c18.4678 -53.6133 9.20605 -115.472 -24.7783 -165.471c-22.8164 -33.5664 -37.7002 -71.3857 -43.0439 -109.368c-0.296875 -2.11035 -0.587891 -4.26562 -0.871094 -6.4668c-5.15332 -39.9766 -12.7432 -72.0635 -22.5586 -95.3662
c-11.7578 -27.915 -26.9268 -42.9902 -45.0859 -44.8057c-1.03125 -0.102539 -2.05566 -0.154297 -3.06836 -0.154297c-17.875 -0.000976562 -32.8096 16.04 -44.4307 47.7451c-8.59082 23.4375 -15.3633 54.8418 -19.0703 88.4326
c-2.07227 18.7842 -6.91992 33.9932 -14.0176 43.9844c-2.54102 3.5752 -6.22168 3.96094 -7.68652 3.96094c-1.46582 0 -5.14648 -0.385742 -7.6875 -3.96191c-7.09766 -9.99023 -11.9453 -25.1992 -14.0176 -43.9834
c-3.70703 -33.5898 -10.4795 -64.9951 -19.0703 -88.4326c-11.6201 -31.7031 -26.5576 -47.7441 -44.4307 -47.7451c-1.01465 -0.000976562 -2.03516 0.0507812 -3.06836 0.154297c-18.1602 1.81543 -33.3281 16.8906 -45.0859 44.8057
c-9.81543 23.3027 -17.4053 55.3887 -22.5586 95.3662c-0.293945 2.28613 -0.59668 4.52148 -0.905273 6.70801c-5.35156 37.915 -20.1982 75.6133 -42.9365 109.02c-34.0342 50.0029 -43.3301 111.883 -24.8691 165.53c14.0391 40.7949 42.7227 70.8086 78.6973 82.3447
c68.3057 21.9043 124.482 -6.25977 145.933 -19.7451c21.4453 13.4854 77.6162 41.6504 145.93 19.7451c35.958 -11.5303 64.6367 -41.5264 78.6816 -82.2969zM431.084 208.983c28.709 42.2363 36.6455 94.1621 21.2344 138.901
c-10.9424 31.7627 -32.6377 54.9248 -59.5244 63.5469c-29.2959 9.39551 -59.502 8.79297 -89.7812 -1.78809c-23.1279 -8.08203 -37.6416 -19.2607 -37.7852 -19.373l-9.24902 -7.19629l-9.24023 7.22461c-0.107422 0.0839844 -14.6211 11.2627 -37.749 19.3447
c-30.2793 10.5801 -60.4863 11.1836 -89.7822 1.78809c-26.8984 -8.625 -48.5986 -31.8018 -59.5381 -63.5859c-15.4072 -44.7676 -7.43945 -96.7129 21.3115 -138.954c25.3018 -37.1729 41.8408 -79.248 47.8291 -121.677
c0.325195 -2.30566 0.643555 -4.65918 0.954102 -7.06543c10.4883 -81.3721 30.0342 -112.783 40.7539 -114.197c2.25 0.796875 9.95117 8.19922 18.2285 32.6875c7.01562 20.7529 12.6279 48.0332 15.8057 76.8184c2.66699 24.1758 9.18262 43.7002 19.3682 58.0342
c7.36523 10.3662 19.3584 16.5547 32.082 16.5547s24.7168 -6.1875 32.082 -16.5537c10.1846 -14.335 16.7002 -33.8594 19.3672 -58.0352c3.17676 -28.7852 8.78906 -56.0654 15.8047 -76.8184c8.27734 -24.4883 15.9785 -31.8906 18.2285 -32.6875
c10.7188 1.41504 30.2646 32.8262 40.7529 114.199c0.299805 2.31836 0.605469 4.58789 0.917969 6.81055c5.97852 42.4932 22.5518 84.6875 47.9287 122.021zM401.644 323.926c12.1201 -35.1348 6.11328 -75.6318 -16.0684 -108.327
c-14.0635 -20.7285 -23.1963 -44.502 -26.4121 -68.752l-0.0849609 -0.652344v-101.135h-29.9268v97.3887c-8.8291 10.958 -37.8418 43.2422 -73.1523 43.2422c-35.0713 0 -64.3545 -32.4326 -73.1777 -43.3027v-97.3281h-29.9258v101.339l-0.0595703 0.459961
c-3.20605 24.1758 -12.3652 47.9932 -26.4834 68.8486c-22.1348 32.6914 -28.1074 73.167 -15.9795 108.269c9.36914 27.1152 28.5879 47.1074 52.7266 54.8486c41.8965 13.4355 76.9111 -1.81543 92.9023 -11.1426c15.9873 9.32715 50.999 24.5791 92.8994 11.1426
c24.1553 -7.74609 43.3799 -27.7568 52.7422 -54.8984zM360.811 232.399c16.916 24.9326 21.6055 55.5 12.542 81.7676c-6.25781 18.1426 -18.501 31.3223 -33.5898 36.1611c-41.4111 13.2793 -74.1758 -12.0117 -74.501 -12.2686l-9.2627 -7.2998l-9.26172 7.2998
c-1.02148 0.788086 -21.3271 16.1387 -49.9482 16.1387c-7.65918 0 -15.9111 -1.09961 -24.5527 -3.87012c-15.0771 -4.83496 -27.3164 -18.002 -33.5781 -36.125c-9.06641 -26.2412 -4.40332 -56.7891 12.4736 -81.7197c11.1143 -16.415 19.6348 -34.4131 25.2188 -53.0957
c17.75 16.7061 45.7451 36.2285 79.6504 36.2285c33.8975 0 61.8906 -19.5166 79.6406 -36.2207c5.57715 18.6934 14.082 36.6621 25.1689 53.0039z" />
    <glyph glyph-name="uniF10A" unicode="&#xf10a;" 
d="M509.813 95.7256c3.59082 -11.5117 2.73828 -23.708 -2.39941 -34.3369c-5.29883 -10.958 -14.4717 -18.9463 -25.832 -22.4971l-174.544 -54.5459l-147.098 55.8721l-66.417 -20.0342v-13.7969h-93.5234v157.836h93.5244v-13.8447l52.1836 18.5527
c30.4004 9.50195 62.9102 5.94629 91.542 -10.0059l115.404 -64.2998l101.64 31.7637c11.3613 3.55176 23.4463 2.2041 34.0303 -3.79102c10.2676 -5.81543 17.8984 -15.3584 21.4893 -26.8721zM63.5518 36.3877h0.000976562v97.835h-33.582v-97.835h33.5811z
M480.434 74.457c1.80957 3.74121 2.08203 8.12109 0.770508 12.3281c-1.3125 4.20898 -4.02539 7.6543 -7.63965 9.70117c-3.29883 1.86914 -6.97266 2.31641 -10.3398 1.26465l-113.913 -35.5996l-126.639 70.5605c-21.3018 11.8691 -45.3613 14.585 -67.7676 7.66504
l-61.3809 -21.833v-67.0254l67.5244 20.3672l146.941 -55.8135l164.661 51.458c3.36816 1.05273 6.13281 3.5127 7.78223 6.92676zM474.101 352.726c9.29395 -27.0088 4.68945 -58.0879 -12.3184 -83.1367c-9.76074 -14.375 -16.124 -30.5361 -18.4014 -46.7354
c-0.129883 -0.930664 -0.258789 -1.88574 -0.383789 -2.86035c-5.93066 -46.0498 -18.4453 -69.3936 -38.2578 -71.375c-0.726562 -0.0722656 -1.47656 -0.113281 -2.24414 -0.113281c-8.68555 0 -19.8779 5.15625 -27.9648 27.2422
c-4.15625 11.3486 -7.41797 26.4355 -9.1875 42.4775c-0.436523 3.9668 -1.12012 7.10547 -1.86914 9.56348c-0.749023 -2.45801 -1.43164 -5.59668 -1.86816 -9.56348c-1.76953 -16.043 -5.03125 -31.1299 -9.1875 -42.4785
c-8.80371 -24.0391 -21.2803 -28.0156 -30.21 -27.1289c-19.8135 1.98145 -32.3262 25.3252 -38.2549 71.3613c-0.130859 1.01465 -0.262695 2.00684 -0.401367 2.97656c-2.2793 16.1719 -8.625 32.2773 -18.3496 46.5801
c-17.0332 25.0508 -21.6553 56.1406 -12.3643 83.166c7.27637 21.166 22.3193 36.7949 41.2715 42.8779c30.4678 9.77832 56.2354 -0.209961 69.3652 -7.41016c13.126 7.20117 38.8896 17.1914 69.3623 7.41016c18.9443 -6.08105 33.9844 -21.7012 41.2637 -42.8535z
M436.996 286.453c11.7246 17.2656 15.0029 38.3877 8.76855 56.501c-4.17285 12.124 -12.2197 20.8916 -22.0781 24.0566c-27.5254 8.83008 -49.4873 -7.24414 -50.9688 -8.3623l-9.40918 -7.6416l-9.08887 7.64844c-1.57031 1.18359 -23.4883 17.168 -50.958 8.35449
c-9.8623 -3.16797 -17.9121 -11.9404 -22.083 -24.0732c-6.22949 -18.123 -2.94043 -39.2539 8.80176 -56.5225c12.292 -18.0762 20.3311 -38.5703 23.25 -59.2617c0.152344 -1.08594 0.303711 -2.19922 0.449219 -3.33789
c2.74414 -21.3135 6.67676 -33.6748 9.71875 -40.1611c3.03711 7.49902 6.51562 20.5967 8.41895 37.8604c1.37598 12.4834 4.85059 22.7256 10.3301 30.4443c4.89551 6.90039 12.8691 11.0186 21.3271 11.0186s16.4326 -4.11914 21.3281 -11.0186
c5.47949 -7.71777 8.9541 -17.9619 10.3301 -30.4453c1.90332 -17.2627 5.38086 -30.3604 8.41895 -37.8594c3.04199 6.48633 6.97461 18.8486 9.71777 40.1621c0.139648 1.08594 0.285156 2.16016 0.432617 3.21484c2.91406 20.7246 10.9678 41.2725 23.2939 59.4229z" />
    <glyph glyph-name="uniF10B" unicode="&#xf10b;" 
d="M475.019 378.451l36.9814 -36.9473l-95.416 -95.3252l-34.5381 34.5049l-108.069 -112.685l16.2002 -16.1846l-200.872 -200.683l-89.3047 89.2207l200.872 200.682l16.2002 -16.1855l205.173 196.396c15.1846 14.5381 37.4443 15.5723 50.6709 2.35547
c11.7119 -11.7002 12.2344 -30.4688 2.10254 -45.1484zM89.3047 -6.44238l18.0547 18.0371l-46.8398 46.7949l-18.0537 -18.0371zM173.077 81.6484l26.7803 26.7549l-10.6025 10.5918l-26.7803 -26.7549zM223.292 127.418l24.4189 24.3955l-46.8389 46.7949
l-119.119 -119.007l46.8389 -46.7949l25.4531 25.4297l-34.0361 34.0039l69.2461 69.1807zM252.739 189.217l196.138 204.516c3.64648 3.80078 3.62109 7.8418 2.80664 8.6543s-4.8584 0.836914 -8.66504 -2.80469l-204.708 -195.951zM416.584 288.605l52.9502 52.8994
l-14.8916 14.877l-51.8174 -54.0312z" />
    <glyph glyph-name="uniF103" unicode="&#xf103;" 
d="M472.229 360.821c17.7939 -51.6562 8.87305 -111.25 -23.8643 -159.414l-0.000976562 -0.000976562c-1.75781 -2.58496 -3.54199 -5.31738 -5.30566 -8.125l-4.4082 -7.01465h-365.283l-4.40918 7.00586c-1.74121 2.76758 -3.50781 5.46973 -5.25098 8.03027
c-32.7852 48.168 -41.7383 107.781 -23.9512 159.472c13.543 39.3535 41.2256 68.3125 75.9531 79.4473c65.4609 20.9932 119.362 -5.73242 140.293 -18.8145c20.9287 13.0811 74.8311 39.8076 140.29 18.8145c34.71 -11.1309 62.3887 -40.0713 75.9375 -79.4004z
M423.573 218.262c27.4492 40.3857 35.043 90.0293 20.3096 132.796c-10.4404 30.3057 -31.124 52.4004 -56.748 60.6172c-67.6338 21.6855 -121.322 -19.7627 -121.857 -20.1836l-9.27832 -7.31445l-9.27832 7.31348
c-0.0996094 0.0771484 -13.9844 10.7646 -36.1035 18.4873c-28.9248 10.0977 -57.7783 10.668 -85.7549 1.69629c-25.6357 -8.21973 -46.3232 -30.3281 -56.7598 -60.6553c-14.7266 -42.7939 -7.10547 -92.4561 20.3867 -132.847
c0.431641 -0.636719 0.864258 -1.27734 1.29883 -1.92773h332.428c0.453125 0.680664 0.905273 1.35352 1.35742 2.01758zM86.4785 154.666h339.033l-14.4268 -22.9639c-15.3799 -24.4795 -25.1143 -50.6582 -28.9346 -77.8115
c-0.231445 -1.6416 -0.457031 -3.31934 -0.677734 -5.03223c-9.2832 -72.0107 -28.1045 -109.934 -55.9404 -112.717c-0.938477 -0.09375 -1.87109 -0.140625 -2.79004 -0.140625c-15.4824 0 -28.1992 13.2939 -37.8311 39.5713
c-6.82227 18.6133 -12.1953 43.5078 -15.1299 70.0938c-1.97754 17.9141 -6.75195 27.8066 -10.4082 32.9531c-1.07227 1.50879 -2.57129 1.73438 -3.36914 1.73438c-0.799805 0 -2.29883 -0.224609 -3.37012 -1.7334c-3.6582 -5.14844 -8.43164 -15.043 -10.4082 -32.9541
c-2.93457 -26.5879 -8.30762 -51.4805 -15.1299 -70.0938c-10.2031 -27.8379 -23.8633 -41.1055 -40.6221 -39.4307c-27.8369 2.78223 -46.6572 40.7061 -55.9385 112.717c-0.229492 1.77734 -0.464844 3.51758 -0.704102 5.21973
c-3.83008 27.1221 -13.5518 53.2344 -28.8945 77.6152zM352.461 58.0703c3.23242 22.9717 10.0957 45.2861 20.4717 66.6182h-233.836c10.3369 -21.248 17.1846 -43.498 20.4209 -66.4199c0.254883 -1.81641 0.506836 -3.67578 0.751953 -5.5752
c8.44434 -65.5146 23.0771 -83.8271 28.1943 -86.3945c6.00781 5.1123 18.5059 33.1895 23.9648 82.6562c2.1543 19.5107 7.45898 35.333 15.7666 47.0264c6.38379 8.98633 16.7793 14.3506 27.8086 14.3506c11.0283 0 21.4248 -5.36426 27.8076 -14.3506
c8.30762 -11.6914 13.6133 -27.5146 15.7666 -47.0264c5.45801 -49.4629 17.9561 -77.542 23.9648 -82.6553c5.11816 2.56836 19.75 20.8818 28.1943 86.3926c0.235352 1.83105 0.476562 3.62305 0.723633 5.37793z" />
    <glyph glyph-name="uniF113" unicode="&#xf113;" 
d="M467.384 351.753c24.6016 0 44.6162 -20.0137 44.6162 -44.6162v-53.0039v-0.00195312h-24.2832v-95.7373h24.2832v-72.3613c0 -29.6572 -28.0869 -53.7852 -62.6113 -53.7852h-449.389v96.0059h223v30.1406h39v97.4795
c-18.6309 5.35938 -32.3047 22.5439 -32.3047 42.875v53.0049h237.688zM259.695 298.749c0 -8.05859 6.55664 -14.6162 14.6152 -14.6162h207.688v23.0039c0 8.05957 -6.55566 14.6162 -14.6162 14.6162h-207.688v-23.0039zM457.717 254.133h-35.2393v-95.7363h35.2393
v95.7363zM392.478 254.133h-35.2383v-95.7363h35.2383v95.7363zM327.239 254.133h-35.2393v-95.7363h35.2393v95.7363zM83.5 62.249v36.0059h-53.5v-36.0059h53.5zM140.5 62.249v36.0059h-27v-36.0059h27zM482 86.0332v42.3613h-229v-30.1406h-82.5v-36.0059h278.889
c17.6777 0 32.6113 10.8916 32.6113 23.7852z" />
    <glyph glyph-name="uniF106" unicode="&#xf106;" 
d="M490.693 156.782c10.0029 -29.0361 5.03809 -62.459 -13.2812 -89.4082c-10.7646 -15.835 -17.7812 -33.6436 -20.2949 -51.5039c-0.144531 -1.02539 -0.285156 -2.0752 -0.422852 -3.14551c-6.375 -49.459 -19.6338 -74.5146 -40.5312 -76.6035
c-0.813477 -0.0810547 -1.61523 -0.121094 -2.39941 -0.121094c-26.7734 -0.00390625 -35.9824 46.501 -39.1025 74.7861c-0.72168 6.52539 -2.02246 11.1006 -3.37988 14.2773c-1.35742 -3.17578 -2.6582 -7.75195 -3.37988 -14.2773
c-3.12109 -28.2842 -12.334 -74.7832 -39.1035 -74.7861c-0.786133 0 -1.58398 0.0400391 -2.40039 0.121094c-20.8945 2.08789 -34.1533 27.1445 -40.5293 76.6035c-0.141602 1.10547 -0.289062 2.19141 -0.438477 3.25488
c-0.876953 6.21484 -2.31152 12.4189 -4.24512 18.5322h-264.953v386.649h82.1436v26.8389h30v-26.8389h145.768v26.8389h29.999v-26.8398h82.1455l-0.00683594 -220.001c15.1982 5.51953 36.3848 9.13867 60.2607 1.48047
c20.2578 -6.49609 36.3496 -23.2109 44.1523 -45.8574zM46.2314 391.161v-70.0527h310.058v70.0527h-52.1465v-19.4668h-29.999v19.4668h-145.769v-19.4668h-29.999v19.4668h-52.1445zM265.189 67.3174c-18.3428 26.9512 -23.3262 60.3867 -13.3281 89.4404
c7.79883 22.6592 23.8945 39.3848 44.1621 45.8838c23.8779 7.65723 45.0615 4.03809 60.2588 -1.48047v89.9473h-310.051v-226.596h220.812c-0.605469 0.941406 -1.22168 1.87695 -1.85352 2.80469zM452.604 84.2393c13.0283 19.166 16.6641 42.6328 9.72754 62.7744
c-4.69043 13.6191 -13.7842 23.4824 -24.9482 27.0625c-31.1543 9.98828 -55.8535 -8.5752 -56.8887 -9.37012l-9.43652 -7.63574l-9.06055 7.69434c-0.960938 0.735352 -25.6631 19.2988 -56.8135 9.31055c-11.1689 -3.58203 -20.2646 -13.4521 -24.9541 -27.0801
c-6.93457 -20.1514 -3.28613 -43.6279 9.76172 -62.7979c13.293 -19.5322 21.9883 -41.668 25.1426 -64.0146c0.166992 -1.17578 0.329102 -2.38379 0.488281 -3.61719c3.39941 -26.375 8.44629 -40.3076 11.9941 -46.7041c3.50391 7.54004 8.09082 22.6592 10.4707 44.2168
c1.47461 13.374 5.18555 24.3252 11.0273 32.5459c5.08887 7.16309 13.375 11.4404 22.167 11.4404c8.79102 0.000976562 17.0791 -4.27637 22.1709 -11.4404c5.8418 -8.2207 9.55176 -19.1709 11.0273 -32.5459c2.37891 -21.5605 6.96777 -36.6777 10.4707 -44.2168
c3.54785 6.39648 8.59473 20.3281 11.9932 46.7002c0.154297 1.18555 0.30957 2.34863 0.469727 3.48828c3.14941 22.3828 11.8604 44.5791 25.1904 64.1895zM97.2568 219.985v29.999h29.999v-29.999h-29.999zM156.597 219.985v29.999h29.999v-29.999h-29.999z
M215.926 219.985v29.999h29.999v-29.999h-29.999zM275.254 219.985v29.999h29.999v-29.999h-29.999z" />
    <glyph glyph-name="uniF11F" unicode="&#xf11f;" 
d="M429.883 344.64l31.9102 -97.9492l-239.076 -239.076l34.21 -34.21l-21.2432 -21.2432l-78.0117 78.0107l-50.5723 -50.5723l22.3574 -22.3564l-21.2432 -21.2432l-108.214 108.214l21.2441 21.2422l22.3574 -22.3584l50.5713 50.5723l-78.0098 78.0107l21.2422 21.2432
l34.21 -34.21l239.076 239.076l97.9482 -31.9072l82.1172 82.1172l21.2432 -21.2432zM85.8564 0.84375l50.5713 50.5713l-21.0127 21.0117l-50.5713 -50.5703zM201.471 28.8584l226.048 226.045l-26.6875 81.9258l-81.9248 26.6885l-42.5996 -42.5986l45.0312 -45.0303
l-21.2432 -21.2441l-45.0303 45.0312l-35.0977 -35.0967l45.0322 -45.0312l-21.2432 -21.2432l-45.0312 45.0312l-35.0967 -35.0957l45.0312 -45.0303l-21.2432 -21.2441l-45.0322 45.0312l-49.5254 -49.5264z" />
    <glyph glyph-name="uniF122" unicode="&#xf122;" 
d="M493.035 428.655c12.2295 -12.2158 18.9648 -28.457 18.9648 -45.7334c0 -17.2754 -6.73535 -33.5186 -18.9648 -45.7354s-28.4893 -18.9434 -45.7842 -18.9434c-12.1855 0 -23.8506 3.35254 -33.9609 9.59863l-30.3623 -30.3291
c3.98145 -7.43457 6.09473 -15.7803 6.09473 -24.4492c0 -13.8721 -5.40723 -26.9121 -15.2275 -36.7217l-300.272 -299.941l-73.5225 73.4404l300.273 299.942c16.6328 16.6133 41.8184 19.583 61.5215 8.93262l30.3154 30.2822
c-6.25293 10.0986 -9.61035 21.75 -9.61035 33.9229c0 17.2764 6.73535 33.5186 18.9648 45.7354c12.2305 12.2168 28.4893 18.9434 45.7852 18.9434c17.2949 0 33.5557 -6.72754 45.7852 -18.9443zM73.5225 -21.2861l31.1602 31.127l-31.1602 31.127l-31.1611 -31.127z
M352.615 257.499c4.16113 4.1582 6.4541 9.68457 6.4541 15.5615c0 5.87988 -2.29297 11.4072 -6.4541 15.5645c-8.58984 8.58203 -22.5703 8.58301 -31.1611 0l-226.752 -226.501l31.1611 -31.126zM471.855 358.342c13.5674 13.5527 13.5674 35.6055 -0.00195312 49.1562
c-6.7832 6.77539 -15.6943 10.1641 -24.6045 10.1641c-8.91113 0 -17.8223 -3.38867 -24.6055 -10.1641c-13.5664 -13.5518 -13.5664 -35.6035 0 -49.1562c13.5684 -13.5518 35.6436 -13.5518 49.2119 0z" />
    <glyph glyph-name="uniF107" unicode="&#xf107;" 
d="M264.924 435.199l9.50781 -28.2764c-13.8877 -4.50391 -18.7666 -9.25781 -18.7666 -9.25781s-4.50391 4.50391 -18.3906 9.00781l9.50879 28.2754s3.97559 -0.703125 8.88281 -3.70605c4.90723 3.00293 9.25781 3.95703 9.25781 3.95703zM446.321 332.514
c15.7129 -45.6123 7.84863 -98.2158 -21.0352 -140.712c-18.8828 -27.7803 -31.2012 -59.0713 -35.6221 -90.4912c-0.248047 -1.75586 -0.490234 -3.5498 -0.725586 -5.38086c-9.84473 -76.3691 -29.6416 -116.568 -58.8418 -119.488
c-0.962891 -0.0966797 -1.91797 -0.145508 -2.86035 -0.145508c-16.085 0 -29.3564 13.9736 -39.4814 41.5986c-7.25684 19.8008 -12.9736 46.2959 -16.0977 74.6035c-2.13379 19.332 -7.31641 30.0557 -11.2891 35.6494c-1.40137 1.97266 -3.36133 2.2666 -4.4043 2.2666
s-3.00293 -0.293945 -4.4043 -2.26953c-3.97168 -5.58984 -9.1543 -16.3125 -11.2881 -35.6465c-3.12402 -28.3086 -8.8418 -54.8027 -16.0996 -74.6035c-10.124 -27.6211 -23.3965 -41.5967 -39.4805 -41.5986c-0.945312 0 -1.89844 0.0488281 -2.8623 0.145508
c-29.2002 2.91992 -48.9961 43.1191 -58.8398 119.484c-0.246094 1.90234 -0.49707 3.76367 -0.753906 5.58301c-4.42773 31.3633 -16.7129 62.5547 -35.5322 90.2012c-28.9268 42.499 -36.8193 95.1201 -21.1123 140.762c12.0078 34.8975 36.5986 60.5879 67.4639 70.4863
c56.7432 18.1992 103.676 -4.19727 122.908 -15.9756c19.2334 11.7773 66.167 34.1729 122.907 15.9756c30.8525 -9.89258 55.4365 -35.5693 67.4512 -70.4443zM400.452 208.683c23.5908 34.7061 30.125 77.3438 17.4766 114.049
c-8.89941 25.8379 -26.4785 44.6562 -48.2285 51.6318c-23.9395 7.6748 -48.6328 7.19727 -73.3994 -1.41797c-19.0195 -6.61621 -30.9717 -15.7969 -31.0898 -15.8896l-9.29395 -7.3252l-9.25 7.36035c-0.0751953 0.0585938 -12.0273 9.23926 -31.0459 15.8555
c-13.1045 4.55859 -26.1885 6.83887 -39.1494 6.83887c-11.5391 0 -22.9775 -1.80762 -34.25 -5.4209c-21.7598 -6.97852 -39.3428 -25.8096 -48.2402 -51.6641c-12.6416 -36.7334 -6.08301 -79.3848 17.543 -114.094c21.3896 -31.4287 35.374 -67.0107 40.4395 -102.899
c0.274414 -1.93555 0.541992 -3.91699 0.802734 -5.94238c3.93848 -30.5586 9.7998 -55.6836 16.9482 -72.6543c6.03027 -14.3145 11.5713 -19.5117 14.292 -20.5801c2.3457 1.8125 8.01953 9.08594 14.0488 27.7461c5.46191 16.8984 9.85352 38.7461 12.3662 61.5156
c2.28125 20.6621 7.88477 37.3994 16.6572 49.7451c6.63086 9.33301 17.4277 14.9043 28.8818 14.9043c11.4551 0 22.252 -5.57227 28.8828 -14.9033c8.77441 -12.3496 14.3779 -29.0859 16.6572 -49.7461c2.51172 -22.7695 6.9043 -44.6172 12.3662 -61.5156
c6.03125 -18.6602 11.7031 -25.9336 14.0488 -27.7461c2.72168 1.06934 8.2627 6.26465 14.292 20.5801c7.14941 16.9717 13.0098 42.0957 16.9492 72.6543c0.251953 1.94922 0.509766 3.8584 0.772461 5.72949c5.05664 35.9453 19.0693 71.6279 40.5225 103.188z
M46.9766 302.89c-0.699219 -6.08105 -1.05371 -12.2598 -1.05371 -18.3672c0 -3.61328 0.125 -7.27148 0.371094 -10.8691l-29.958 -2.04297c-0.291016 4.27539 -0.438477 8.62109 -0.438477 12.9121c-0.000976562 7.25098 0.418945 14.5859 1.25 21.8008zM37.7471 372.562
l26.4072 -14.292c-4.52246 -8.35547 -8.28711 -17.3672 -11.1934 -26.7822l-28.6934 8.84961c3.48438 11.2959 8.01953 22.1387 13.4795 32.2246zM50.9658 244.839c2.44336 -9.40918 5.79297 -18.625 9.95605 -27.3926l-27.127 -12.875
c-4.97168 10.4736 -8.97168 21.4824 -11.8906 32.7178zM120.221 64.5449c1.35547 -10.5098 3.10059 -20.3652 5.18164 -29.2695l-29.2383 -6.83594c-2.31348 9.89062 -4.24023 20.7549 -5.72559 32.2871l-0.09375 0.719727l29.7773 3.87012zM76.2012 191.56
c5.95703 -9.25879 11.4834 -19.2588 16.4268 -29.7217l-27.1475 -12.8291c-4.39062 9.28906 -9.27832 18.1396 -14.5332 26.3066zM105.248 130.567c3.56152 -10.4766 6.62988 -21.3516 9.12109 -32.3223l-29.2822 -6.64746
c-2.25977 9.95605 -5.04102 19.8154 -8.2666 29.3047zM85.1123 425.25l16.2666 -25.2402c-7.50293 -4.83496 -14.5537 -10.9727 -20.9609 -18.2461l-22.5322 19.8486c8.23633 9.34961 17.3965 17.3027 27.2266 23.6377zM186.634 448
c11.3223 -0.771484 22.791 -2.52539 34.0908 -5.2168l-6.95508 -29.21c-9.68945 2.30664 -19.5049 3.81055 -29.1758 4.46875zM191.5 -33.5898l4.43848 -29.6963c-3.16699 -0.473633 -6.42969 -0.713867 -9.69629 -0.713867
c-10.4707 0.000976562 -20.3633 1.78223 -29.4033 5.29102l10.8672 27.9922c5.56152 -2.16016 11.7998 -3.25488 18.5381 -3.25586c1.78516 0 3.55273 0.128906 5.25586 0.382812zM226.21 -1.43164l27.1367 -12.8564c-5.87793 -12.4072 -13.0107 -22.7051 -21.1982 -30.6084
l-20.8525 21.6074c5.57422 5.37891 10.5908 12.7324 14.9141 21.8574zM151.945 447.268l3.37793 -29.8379c-9.69238 -1.09668 -19.2734 -3.11914 -28.4766 -6.0127l-9.00488 28.6445c11.0332 3.46875 22.5068 5.89258 34.1035 7.20605zM134.272 7.19922
c3.98047 -9.44824 8.65332 -17.3652 13.8877 -23.5332l-22.8965 -19.4268c-7.21484 8.50195 -13.4922 19.0332 -18.6631 31.3008zM494.852 306.322c0.831055 -7.21484 1.25098 -14.5498 1.25098 -21.8008c0 -4.29102 -0.147461 -8.63574 -0.438477 -12.9121l-29.958 2.04297
c0.245117 3.59863 0.370117 7.25684 0.370117 10.8701c0 6.10742 -0.354492 12.2871 -1.05371 18.3662zM474.251 372.562c5.45996 -10.0859 9.99512 -20.9277 13.4795 -32.2246l-28.6934 -8.84961c-2.90527 9.41504 -6.66992 18.4258 -11.1934 26.7822zM461.034 244.839
l29.0615 -7.55078c-2.91895 -11.2354 -6.91992 -22.2432 -11.8906 -32.7178l-27.127 12.875c4.16211 8.76855 7.51074 17.9854 9.95605 27.3936zM391.878 65.3164l29.7764 -3.87012l-0.09375 -0.719727c-1.48633 -11.5332 -3.41211 -22.3965 -5.72559 -32.2871
l-29.2383 6.83594c2.08203 8.9043 3.82715 18.7598 5.18164 29.2695zM435.799 191.56l25.252 -16.2441c-5.25488 -8.16797 -10.1436 -17.0186 -14.5332 -26.3066l-27.1475 12.8301c4.94434 10.4619 10.4707 20.4619 16.4287 29.7207zM406.752 130.566l28.4277 -9.66504
c-3.22461 -9.48828 -6.00781 -19.3486 -8.2666 -29.3047l-29.2822 6.64746c2.49023 10.9717 5.55859 21.8467 9.12109 32.3223zM426.887 425.249c9.83105 -6.33496 18.9902 -14.2881 27.2266 -23.6377l-22.5322 -19.8486c-6.40723 7.27344 -13.458 13.4121 -20.9609 18.2461
zM325.365 448l2.03906 -29.958c-9.66992 -0.658203 -19.4863 -2.16211 -29.1768 -4.46875l-6.9541 29.21c11.3008 2.69141 22.7695 4.44531 34.0918 5.2168zM344.292 -30.7168l10.8662 -27.9932c-9.03906 -3.50879 -18.9326 -5.29004 -29.4033 -5.29102
c-3.26562 0 -6.52832 0.241211 -9.69531 0.713867l4.43945 29.6973c1.70312 -0.253906 3.46973 -0.382812 5.25488 -0.382812c6.73828 0.000976562 12.9766 1.0957 18.5381 3.25586zM285.791 -1.43164c4.32129 -9.12402 9.33887 -16.4785 14.9141 -21.8574
l-20.8525 -21.6074c-8.1875 7.90234 -15.3203 18.2002 -21.1982 30.6084zM360.053 447.267c11.5977 -1.3125 23.0713 -3.73633 34.1035 -7.20508l-9.00488 -28.6455c-9.20508 2.89258 -18.7842 4.91602 -28.4766 6.0127zM271.062 55.5615
c1.19727 -10.5186 2.9541 -20.4766 5.22266 -29.5938l-15.6357 -3.88867h-4.64844h-4.64941l-15.6357 3.88867c2.26855 9.11816 4.02539 19.0752 5.22168 29.5957l15.0635 -1.71484zM377.727 7.19824l27.6729 -11.6582
c-5.1709 -12.2666 -11.4492 -22.7988 -18.6631 -31.3008l-22.8965 19.4268c5.23438 6.16797 9.90625 14.085 13.8867 23.5322z" />
    <glyph glyph-name="uniF11D" unicode="&#xf11d;" 
d="M512 207v-30h-22.6592c1.50098 -11.6602 2.26562 -22.5684 2.62793 -31.7559c0.560547 -14.1787 -4.97461 -27.9775 -15.1836 -37.8555l-0.688477 -0.665039c-9.37305 -9.07031 -21.7139 -14.0645 -34.7529 -14.0645h-76.7051
c-13.1768 0 -25.9854 5.32617 -35.3018 14.624l-0.578125 -0.560547c-9.37305 -9.07031 -21.7148 -14.0645 -34.7539 -14.0645h-76.7051c-13.1768 0 -25.9854 5.32715 -35.3018 14.625l-0.583008 -0.564453c-9.36914 -9.06641 -21.71 -14.0605 -34.749 -14.0605h-76.7051
c-13.4707 0 -26.5664 5.55371 -35.9287 15.2402c-9.40918 9.73438 -14.5146 23.0928 -14.0049 36.6494c0.351562 9.36523 1.11914 20.5234 2.65332 32.4521h-22.6807v30h28.124c1.83398 7.59863 4.05859 15.1787 6.75488 22.5107
c18.792 51.1045 50.502 61.8311 73.7939 61.8311c23.1846 0 54.7705 -10.6328 73.5928 -61.2881c0.0263672 -0.0693359 0.0517578 -0.140625 0.0771484 -0.211914c18.8076 50.8164 50.4287 61.5 73.6689 61.5c23.1846 0 54.7705 -10.6328 73.5938 -61.2881
c0.0253906 -0.0693359 0.0507812 -0.140625 0.0761719 -0.211914c18.8076 50.8164 50.4287 61.5 73.6689 61.5c23.1846 0 54.7705 -10.6328 73.5938 -61.2881c2.78613 -7.49902 5.07129 -15.2666 6.9502 -23.0537h28.1055zM108.673 261.342
c-27.0049 0 -41.6182 -25.9844 -49.5254 -54.3418h34.1855v14h30v-14h34.8408c-7.90918 28.3184 -22.5166 54.3418 -49.501 54.3418zM161.247 128.948c4.0791 3.94824 6.29102 9.45605 6.06836 15.1113c-0.292969 7.43457 -1.05371 19.415 -2.99023 32.9404h-40.9912
v-15.333h-30v15.333h-40.3223c-1.96875 -13.7852 -2.72168 -26.0186 -3.00586 -33.5771c-0.204102 -5.43457 1.83594 -10.7832 5.59668 -14.6738c3.74219 -3.87109 8.97656 -6.09082 14.3594 -6.09082h76.7041c5.21094 0 10.1436 1.99609 13.8887 5.62109zM256.012 261.342
c-27.0049 0 -41.6182 -25.9844 -49.5254 -54.3418h34.5137v14h30v-14h34.5127c-7.90918 28.3184 -22.5166 54.3418 -49.501 54.3418zM308.582 128.945c4.08301 3.95117 6.29492 9.45898 6.07227 15.1143c-0.292969 7.43457 -1.05371 19.415 -2.99023 32.9404h-40.6641
v-15.333h-30v15.333h-40.6504c-1.96777 -13.7852 -2.72168 -26.0186 -3.00586 -33.5771c-0.204102 -5.43457 1.83594 -10.7832 5.59766 -14.6738c3.74121 -3.87109 8.97559 -6.09082 14.3584 -6.09082h76.7051c5.21094 0 10.1445 1.99609 13.8887 5.62109zM403.351 261.342
c-27.0049 0 -41.6172 -25.9844 -49.5254 -54.3418h34.5137v14h30v-14h34.5127c-7.9082 28.3184 -22.5166 54.3418 -49.501 54.3418zM455.921 128.945c4.08301 3.95117 6.29492 9.45898 6.07227 15.1152c-0.292969 7.43359 -1.05273 19.4141 -2.98926 32.9395h-40.6641
v-15.333h-30v15.333h-40.6494c-1.96875 -13.7852 -2.72266 -26.0186 -3.00684 -33.5771c-0.203125 -5.43457 1.83594 -10.7832 5.59766 -14.6738c3.74219 -3.87109 8.97559 -6.09082 14.3584 -6.09082h76.7041c5.21094 0 10.1445 1.99609 13.8896 5.62109z" />
    <glyph glyph-name="uniF11E" unicode="&#xf11e;" 
d="M406.205 161.795c58.3359 0 105.795 -47.459 105.795 -105.795c0 -58.335 -47.459 -105.794 -105.795 -105.794h-300.41c-58.3359 0 -105.795 47.459 -105.795 105.794s47.459 105.795 105.795 105.795h300.41zM241 -19.7949v151.589h-135.205
c-41.793 0 -75.7949 -34.001 -75.7949 -75.7939s34.002 -75.7939 75.7949 -75.7949h135.205zM406.205 -19.7939c41.793 0 75.7949 34.001 75.7949 75.7939s-34.002 75.7949 -75.7949 75.7949h-135.205v-151.589h135.205zM372.848 356.558
c27.4414 -64.4297 -2.65039 -139.173 -67.0811 -166.613c-16.1826 -6.89258 -33.0225 -10.1562 -49.5938 -10.1562c-49.4053 0 -96.4707 28.9893 -117.021 77.2373c-27.4414 64.4297 2.65039 139.173 67.0811 166.613c64.4316 27.4414 139.173 -2.65137 166.614 -67.0811z
M161.943 283.036l176.354 75.1113c-17.9355 28.7803 -49.5049 45.6475 -82.4307 45.6475c-12.6592 0 -25.5166 -2.49219 -37.8779 -7.75684c-44.5186 -18.9609 -67.5703 -67.4883 -56.0459 -113.002zM345.984 270.562c7.7832 19.332 9.13184 40.1709 4.08105 59.9883
l-176.364 -75.1152c17.9355 -28.7803 49.5039 -45.6465 82.4307 -45.6475c12.6592 0 25.5166 2.49219 37.8779 7.75684c23.8389 10.1543 42.2969 28.9824 51.9746 53.0176z" />
    <glyph glyph-name="uniF102" unicode="&#xf102;" 
d="M480.61 357.633c18.4639 -53.6162 9.20801 -115.474 -24.7783 -165.471c-22.8125 -33.5654 -37.7061 -71.3916 -43.043 -109.367c-0.298828 -2.11523 -0.588867 -4.27051 -0.87793 -6.47461c-5.14648 -39.9707 -12.7383 -72.0605 -22.5537 -95.3623
c-11.7607 -27.9111 -26.9229 -42.9834 -45.0879 -44.7988c-1.02832 -0.109375 -2.05566 -0.15918 -3.06348 -0.15918c-17.875 0 -32.8076 16.04 -44.4297 47.7422c-8.59863 23.4414 -15.3721 54.8438 -19.0732 88.4404c-2.07422 18.7832 -6.92285 33.9863 -14.0146 43.9814
c-2.54395 3.57031 -6.22461 3.95996 -7.69141 3.95996c-1.46582 0 -5.14648 -0.389648 -7.69043 -3.95996c-7.0918 -9.99512 -11.9404 -25.1982 -14.0146 -43.9814c-3.70117 -33.5967 -10.4746 -64.999 -19.0732 -88.4404
c-11.6123 -31.7012 -26.5537 -47.7412 -44.4297 -47.7412c-1.00781 0 -2.03516 0.0488281 -3.0625 0.15918c-18.165 1.81543 -33.3271 16.8877 -45.0879 44.7988c-9.81543 23.3018 -17.4072 55.3916 -22.5537 95.3623
c-0.298828 2.28418 -0.599609 4.51855 -0.908203 6.71387c-5.35547 37.915 -20.1992 75.6123 -42.9326 109.02c-34.0352 49.9961 -43.332 111.882 -24.8682 165.528c14.0352 40.7988 42.7139 70.8037 78.6934 82.3457c68.3027 21.9062 124.481 -6.26465 145.928 -19.751
c21.4473 13.4873 77.6182 41.6572 145.928 19.751c17.9863 -5.76562 34.1455 -16.1494 47.5625 -30.1846s24.1006 -31.7324 31.123 -52.1113zM431.084 208.982c28.6982 42.2354 36.6377 94.166 21.2256 138.896c-10.9434 31.7715 -32.6396 54.9336 -59.5225 63.5518
c-47.3428 15.1826 -88.1621 0.798828 -110.167 -10.5234l48.7793 -36.25l-38.3447 -65.7568l33.9561 -22.1455l-16.3389 -25.0674l-57.8174 37.7061l39.2129 67.2129l-35.8105 26.6035l-9.1377 6.79297l-0.0498047 0.0302734l-0.338867 0.268555
c-0.0996094 0.0800781 -14.6133 11.2627 -37.7461 19.3428c-30.2744 10.5732 -60.4795 11.1826 -89.7764 1.78516c-26.9033 -8.62793 -48.5996 -31.8008 -59.542 -63.5811c-15.4023 -44.7695 -7.43164 -96.7207 21.3164 -138.955
c25.2979 -37.1777 41.8359 -79.2432 47.8213 -121.678c0.329102 -2.30371 0.649414 -4.6582 0.958008 -7.0625c10.4941 -81.3672 30.0361 -112.779 40.749 -114.196c2.25488 0.797852 9.95605 8.2002 18.2354 32.6885c7.0127 20.748 12.6289 48.0312 15.8008 76.8193
c2.67285 24.1699 9.18652 43.6914 19.3721 58.0254c7.36035 10.3643 19.3613 16.5596 32.0791 16.5596c12.7188 0 24.7188 -6.19531 32.0801 -16.5596c10.1855 -14.334 16.6992 -33.8555 19.3721 -58.0254c3.17188 -28.7881 8.78809 -56.0713 15.8008 -76.8193
c8.28027 -24.4883 15.9814 -31.8906 18.2354 -32.6885c10.7129 1.41699 30.2646 32.8291 40.749 114.196c0.299805 2.31445 0.609375 4.58984 0.917969 6.81348c5.97461 42.4941 22.5537 84.6797 47.9307 122.017z" />
    <glyph glyph-name="uniF10E" unicode="&#xf10e;" 
d="M495.764 146.614c10.4697 -10.4492 16.2354 -24.3457 16.2363 -39.1279c0 -14.7822 -5.76367 -28.6777 -16.2334 -39.1289l-23.7998 -23.7646l-82.6768 82.5498h-24.166v-52.9424h-92.1523v-62.4834h36.3359v-30h-104.279v30h37.8975v62.4834h-92.1514v52.9424h-40.5293
l-110.245 110.077l27.3711 27.3271c19.6396 19.6123 51.5986 19.6113 71.2412 0.00292969l48.542 -48.4619h53.3672v19.1953h-45.5703v30h121.689v-30h-46.0703v-19.1953h104.51v86.8174l-48.8652 18.8086c-8.65137 -8.89844 -20.7471 -14.4453 -34.1201 -14.4453
c-26.2354 0 -47.5801 21.3125 -47.5801 47.5078s21.3447 47.5068 47.5801 47.5068c26.2363 0 47.5801 -21.3125 47.5801 -47.5068c0 -2.01465 -0.140625 -3.99414 -0.385742 -5.94336l65.8359 -25.3418v-107.403h61.0449zM252.094 337.27
c9.66797 0 17.5342 7.85449 17.5342 17.5078c0 9.65234 -7.86523 17.5068 -17.5342 17.5068c-9.66797 0 -17.5342 -7.85449 -17.5342 -17.5068c0 -9.65332 7.86523 -17.5059 17.5342 -17.5078zM335.078 104.199v22.9424h-154.258v-22.9424h154.258zM474.522 89.5693
c4.79297 4.78613 7.43164 11.1475 7.43164 17.916c-0.000976562 6.76758 -2.64062 13.1299 -7.43457 17.915l-60.7949 60.6885h-279.016l-57.3408 57.2471c-7.92676 7.91309 -20.8252 7.91406 -28.751 -0.000976562l-6.125 -6.11523l80.1982 -80.0781h279.046
l70.2305 -70.124z" />
    <glyph glyph-name="uniF126" unicode="&#xf126;" 
d="M401.189 175.075c61.1016 0 110.811 -49.71 110.809 -110.812c0 -61.1016 -49.709 -110.811 -110.812 -110.811c-25.6826 0 -49.3516 8.78613 -68.1631 23.5059c-9.33984 -14.2783 -20.3613 -22.123 -32.916 -23.3691
c-1.00098 -0.0996094 -1.99512 -0.149414 -2.97754 -0.149414c-17.0879 -0.000976562 -31.2939 15.127 -42.2549 45.0293c-7.99805 21.8184 -14.3008 51.041 -17.749 82.2842c-2.4043 21.7822 -8.28027 33.9062 -12.7842 40.2412
c-1.97754 2.78418 -4.73535 3.2002 -6.2041 3.2002c-1.46777 0 -4.22559 -0.416016 -6.19922 -3.19434c-4.51465 -6.34863 -10.3955 -18.4805 -12.7979 -40.248c-3.44727 -31.2412 -9.75098 -60.4629 -17.7471 -82.2822
c-11.5898 -31.624 -26.8154 -46.7285 -45.2354 -44.8789c-31.5078 3.15137 -52.959 47.2246 -63.7549 130.996c-1.60156 12.3945 -3.53516 23.9727 -5.74512 34.4082c-4.98047 23.5908 -15.084 45.7354 -30.0332 65.8291c-34.832 46.8096 -45.6318 105.911 -28.8926 158.095
c12.7578 39.7725 39.9932 68.9688 74.7227 80.1045c63.1357 20.2441 115.184 -5.30762 135.686 -18.0537c20.501 12.7461 72.5459 38.2979 135.684 18.0557c34.7197 -11.1357 61.9512 -40.3232 74.7109 -80.0801c16.7422 -52.1621 5.96191 -111.248 -28.8369 -158.056
c-2.45996 -3.30664 -4.78223 -6.69238 -6.99121 -10.1357c2.7998 0.211914 5.62793 0.321289 8.48242 0.321289zM297.622 -16.4365c3.18848 0.699219 8.25977 5.27539 13.7715 15.8486c-13.2129 18.2451 -21.0156 40.6533 -21.0156 64.8516
c0 43.7637 25.502 81.6777 62.4238 99.6748c6.07031 13.626 13.7168 26.6797 22.7871 38.877c29.0273 39.043 38.126 87.9941 24.3398 130.946c-9.75977 30.4092 -29.9092 52.5166 -55.2783 60.6533c-26.8984 8.625 -54.6426 8.08008 -82.457 -1.62207
c-21.2939 -7.42578 -34.6621 -17.7119 -34.7949 -17.8154l-9.29883 -7.32715l-9.25879 7.35938c-0.0927734 0.0722656 -13.4629 10.3574 -34.7549 17.7832c-27.8164 9.70215 -55.5576 10.2471 -82.458 1.62109c-25.3789 -8.13672 -45.5312 -30.251 -55.2891 -60.6719
c-13.7842 -42.9697 -4.66699 -91.9365 24.3887 -130.984c17.5605 -23.6006 29.4443 -49.6904 35.3242 -77.5479c2.375 -11.208 4.44434 -23.585 6.14941 -36.7783c10.5879 -82.1494 29.4268 -103.296 36.457 -104.866c1.41699 0.876953 8.34766 6.25195 16.4365 30.7256
c6.28223 19.0059 11.3203 43.7803 14.1865 69.7568c2.49805 22.6221 8.61035 40.9102 18.1709 54.3545c7.04102 9.91309 18.5156 15.834 30.6885 15.834c12.1738 0 23.6475 -5.92188 30.6924 -15.8389c9.54785 -13.4287 15.6582 -31.7168 18.1572 -54.3486
c2.86719 -25.9824 7.90625 -50.7598 14.1885 -69.7646c8.09766 -24.4912 15.0322 -29.8506 16.4434 -30.7207zM401.189 -16.5039c44.5352 0 80.7676 36.2314 80.7676 80.7676s-36.2324 80.7686 -80.7676 80.7686c-44.5361 0 -80.7686 -36.2334 -80.7686 -80.7686
s36.2324 -80.7676 80.7686 -80.7676zM415.733 77.6084h35.0498v-30.043h-35.0498v-35.0508h-30.043v35.0508h-35.0508v30.043h35.0508v35.0498h30.043v-35.0498z" />
    <glyph glyph-name="uniF100" unicode="&#xf100;" 
d="M239 345.66c0 8.15723 6.6123 14.7695 14.7695 14.7695s14.7705 -6.6123 14.7705 -14.7695s-6.61328 -14.7705 -14.7705 -14.7705s-14.7695 6.61328 -14.7695 14.7705zM438.373 67.1924c26.04 -11.7949 42.8662 -37.8867 42.8662 -66.4727v-64.7197h-30v64.7178
c0 16.834 -9.90918 32.2002 -25.2432 39.1455l-42.5938 19.292l15.1689 -72.8809l-65.8701 -50.2744h-76.3652l31.5615 79.5586h-63.8262l31.5605 -79.5586h-76.3652l-65.8691 50.2754l15.166 72.8643l-42.5596 -19.2744
c-15.334 -6.94629 -25.2432 -22.3115 -25.2432 -39.1455v-64.7197h-30v64.7178c0 28.5859 16.8262 54.6787 42.8662 66.4736l62.5039 28.3076v0.000976562l30.3301 13.7363l14.4658 6.55176c-30.4268 21.959 -50.6074 57.2773 -51.8594 97.2861
c-6.57227 2.35059 -12.5771 6.18262 -17.5889 11.3096c-8.55371 8.75 -13.2637 20.3105 -13.2637 32.5479c0 12.2383 4.70996 23.7988 13.2637 32.5488c4.99512 5.11035 10.9775 8.93359 17.5264 11.2861v39.8906h-0.00195312v31.2949
c0 41.9326 34.1152 76.0479 76.0479 76.0479h97.124c41.9326 0 76.0479 -34.1152 76.0488 -76.0479v-8.29785h0.316406v-62.8867c6.54785 -2.35254 12.5312 -6.17578 17.5264 -11.2861c8.55371 -8.75 13.2637 -20.3105 13.2637 -32.5488
c0 -12.2373 -4.70996 -23.7979 -13.2637 -32.5479c-5.01172 -5.12695 -11.0166 -8.95898 -17.5889 -11.3096c-1.22852 -39.2588 -20.6865 -73.999 -50.166 -96.0352zM348.539 324.618h-0.316406v9.03613h-23.3184c4.58789 -7.73828 11.9971 -16.5391 23.6348 -22.6377
v13.6016zM205.051 418c-25.3906 0 -46.0479 -20.6572 -46.0479 -46.0479h0.000976562v-8.29785h32.3486c7.82617 27.0967 32.8369 46.9766 62.4189 46.9766c29.5811 0 54.5908 -19.8809 62.417 -46.9766h32.0342v8.29785c0 25.3906 -20.6562 46.0479 -46.0479 46.0479
h-97.124zM288.698 343.871c-0.0546875 0.249023 -0.0917969 0.431641 -0.109375 0.523438l0.124023 0.0244141c0.0136719 0.412109 0.03125 0.823242 0.03125 1.23828c0 19.2852 -15.6885 34.9736 -34.9727 34.9736c-19.2852 0 -34.9746 -15.6885 -34.9746 -34.9736
s15.6904 -34.9736 34.9746 -34.9736c18.6846 0 33.9932 14.7305 34.9268 33.1875zM182.001 333.654h-22.9961v-22.5605c11.0479 6.36914 18.3438 15.042 22.9961 22.5605zM159.005 217.026c0 -52.2578 42.5098 -94.7725 94.7617 -94.7715
c52.2578 0 94.7725 42.5137 94.7725 94.7725v22.9844l14.6348 0.356445c8.9082 0.216797 16.1553 7.64746 16.1553 16.5635s-7.24707 16.3467 -16.1553 16.5645l-14.6348 0.355469v4.67676c-19.623 6.35254 -33.0449 17.6504 -42.1162 29.127
c-11.8135 -16.3232 -31.0068 -26.9727 -52.6514 -26.9727c-21.8877 0 -41.2676 10.8906 -53.0469 27.5244c-9.09082 -11.5244 -22.4512 -23.2041 -41.7197 -30.1035v-4.25293l-14.6348 -0.355469c-8.9082 -0.216797 -16.1553 -7.64844 -16.1553 -16.5645
s7.24707 -16.3457 16.1553 -16.5635l14.6348 -0.356445v-22.9844zM189.407 -34h22.0488l-43.9463 110.779l-5.11621 -2.31738l-15.7764 -75.8027zM212.17 45.5586h87.6279l17.3057 43.624l-20.7695 9.40723l0.625 1.38086
c-13.4658 -4.98438 -28.0156 -7.7168 -43.1934 -7.7168c-13.4629 0 -26.4326 2.15039 -38.5898 6.11426l-20.3066 -9.19727l17.3008 -43.6123v0zM322.56 -34l42.7891 32.6592l-15.7764 75.8027l-5.11621 2.31738l-43.9453 -110.779h22.0488z" />
    <glyph glyph-name="uniF114" unicode="&#xf114;" 
d="M349.069 336.835l41.8447 -400.835h-269.828l41.8438 400.834c2.09766 20.085 13.4355 36.9258 29.3125 46.1182v65.0479h127.516v-65.0479c15.876 -9.19238 27.2139 -26.0322 29.3115 -46.1172zM222.242 418.1v-27.6299h67.5156v27.6299h-67.5156zM192.77 333.74
l-31.7471 -304.111h189.955l-31.7461 304.111c-1.43359 13.7207 -11.0615 24.4092 -23.1523 26.4648h-80.1582c-12.0908 -2.05566 -21.7197 -12.7441 -23.1514 -26.4648zM182.026 -34.0996v33.8281h-24.125l-3.53125 -33.8281h27.6562zM241 -34.0996v33.8271h-28.9746
v-33.8271h28.9746zM299.975 -34.0996v33.8281h-28.9746v-33.8281h28.9746zM329.975 -0.272461v-33.8271h27.6562l-3.53125 33.8271h-24.125zM306.017 275.077l10.1123 -91.9473h-120.258l10.1123 91.9473h100.033zM229.339 213.03h53.3223l-3.53516 32.1455h-46.252z" />
    <glyph glyph-name="uniF111" unicode="&#xf111;" 
d="M491.654 233.724l20.3457 -9.81543l-143.322 -126.458c-11.8828 -10.4854 -24.9062 -18.6094 -38.7119 -24.1475c-17.3145 -6.94531 -41.3252 -13.417 -70.6484 -13.417c-17.6865 0 -37.3008 2.35254 -58.5576 8.37305
c-25.8789 7.33008 -49.8789 20.7031 -71.3301 39.7461l-129.43 114.898l134.798 76.5801c2.49121 1.41504 5.14355 3.02051 8.10938 4.90918c7.68555 4.89453 23.7275 13.5713 44.8203 16.7109c23.4316 3.48828 46.5527 -1.06055 67.4717 -13.1748
c6.50098 4.19434 16.1123 9.28027 28.3418 12.6416c21.166 5.81836 54.3525 7.34277 92.2432 -18.4404c62.4209 -42.4756 115.342 -68.1523 115.87 -68.4062zM348.863 119.957l66.998 59.1133c-48.0498 -15.4873 -110.431 -31.7842 -160.215 -31.7842
c-50.1123 0 -113.133 16.5107 -161.441 32.0879l55.1094 -48.9219c18.0479 -16.0225 38.1016 -27.2344 59.6055 -33.3242c48.3809 -13.7051 86.4668 -5.37598 109.899 4.02441c10.623 4.26074 20.7314 10.5889 30.0439 18.8047zM116.493 203.898
c44.1133 -13.5791 97.3428 -26.6133 139.151 -26.6133c41.8379 0 94.9336 13.0283 138.903 26.6016c-41.6699 6.7959 -96.6123 14.167 -138.933 14.167c-42.2979 0 -97.3359 -7.3623 -139.122 -14.1553zM255.615 248.054c62.3857 0 147.798 -14.708 186.386 -22.0156
c-21.5938 12.0439 -50.9219 29.4092 -83.0645 51.2812c-53.7383 36.5674 -92.5977 1.72949 -92.9834 1.37305l-8.93164 -8.2373l-9.89941 7.04199c-39.7158 28.248 -77.4971 8.35254 -88.1309 1.58203c-3.39453 -2.16113 -6.47168 -4.02246 -9.40332 -5.68848
l-84.6602 -48.0947c36.5605 6.99512 126.105 22.7578 190.688 22.7578z" />
    <glyph glyph-name="uniF11A" unicode="&#xf11a;" 
d="M407.647 235.009c17.7119 -42.3984 26.6934 -82.998 26.6924 -120.67c0 -98.3369 -80.0039 -178.339 -178.34 -178.339s-178.339 80.002 -178.339 178.339c0 37.6719 8.98047 78.2715 26.6943 120.669c13.9668 33.4316 33.3857 68.1045 57.7188 103.057
c41.2471 59.25 81.9541 98.4668 83.666 100.107l10.2598 9.82812l10.2607 -9.82715c1.71191 -1.64062 42.4189 -40.8574 83.667 -100.107c24.333 -34.9521 43.752 -69.626 57.7197 -103.057zM256 -34.334c81.9805 0 148.675 66.6953 148.673 148.674
c0 76.8281 -42.832 154.594 -78.7646 206.303c-27.542 39.6357 -55.3887 70.4697 -69.9092 85.6836c-14.5176 -15.2109 -42.3643 -46.0439 -69.9092 -85.6836c-35.9307 -51.709 -78.7637 -129.475 -78.7637 -206.303c0 -81.9785 66.6953 -148.674 148.674 -148.674z
M366.407 132.89c0.1875 -0.980469 4.49121 -24.3408 -4.43555 -51.5459c-8.2373 -25.1074 -29.4834 -58.5645 -83.917 -75.3691l-8.75098 28.3467c33.9775 10.4883 55.6709 29.4219 64.4805 56.2705c6.45703 19.6826 3.5166 36.5635 3.48438 36.7285z" />
    <glyph glyph-name="uniF11C" unicode="&#xf11c;" 
d="M346.607 302.263h56.9268v-366.263h-295.068v366.262h56.9268v26.7021h-29.4014v119.036h240.018v-119.035h-29.4014v-26.7021zM165.991 418v-59.0361h180.019v59.0361h-180.019zM316.607 328.964h-121.215v-26.7021h121.215v26.7021zM373.534 -34v306.263h-235.068
v-306.263h235.068zM160.173 252h191.653v-265h-191.653v265zM321.826 17v205h-131.653v-205h131.653zM271.833 134.5h25.834v-30h-25.834v-25.834h-30v25.834h-25.833v30h25.833v25.833h30v-25.833z" />
    <glyph glyph-name="uniF115" unicode="&#xf115;" 
d="M451.331 359.096c12.6045 -51.2793 -2.53516 -105.967 -41.5361 -150.039l-4.47656 -5.05957h-34.5283l-8.64062 -36.6455l18.5127 6.66504l10.1621 -28.2256l-36.8896 -13.2812l-11.085 -47.0127l37.8125 13.6123l10.1621 -28.2256l-56.1885 -20.2275l-27.0342 -114.658
h-107.38l-14.4922 61.4688l-41.0381 -14.7725l-10.1621 28.2256l44.2705 15.9365l-9.35059 39.6572l-24.7578 -8.91309l-10.1621 28.2266l27.9912 10.0762l-9.34961 39.6572l-8.47949 -3.05273l-10.1621 28.2256l11.7129 4.21582l-9.20703 39.0498h-30.3516
l-4.47559 5.05957c-39.0029 44.0723 -54.1436 98.7578 -41.5381 150.037c9.55176 38.8564 33.7676 69.1152 64.7822 80.9414c59.041 22.5117 120.042 -9.25098 130.549 -15.1543c10.5049 5.90332 71.5098 37.6641 130.548 15.1543
c31.0137 -11.8242 55.2305 -42.083 64.7822 -80.9414zM328.468 155.229l11.0801 47.0156l-72.6318 -26.1475l-10.0469 27.9053h-89.0166l6.7959 -28.8213l58.335 21.001l10.1621 -28.2266l-61.5674 -22.1631l9.34961 -39.6572l42.0557 15.1396l10.1621 -28.2256
l-45.2881 -16.3027l9.35059 -39.6572l25.7764 9.28027l10.1621 -28.2266l-29.0088 -10.4434l9.83203 -41.6982h59.8818l17.1025 72.5342l-34.0332 -12.2529l-10.1621 28.2256l52.4092 18.8672l11.085 47.0127l-53.332 -19.2002l-10.1621 28.2266zM391.638 233.998
c29.1816 35.6133 40.3145 78.2578 30.5596 117.935c-7.09277 28.8594 -24.8496 51.8779 -46.3369 60.0713c-34.4854 13.1484 -71.8135 1.62207 -91.667 -6.80078l36.1445 -26.123l-17.5703 -24.3125l-58.3115 42.1436l0.0908203 0.124023l-1.8252 0.867188
l-0.612305 0.366211c-0.53125 0.3125 -56.2197 32.707 -105.972 13.7373c-21.4873 -8.19336 -39.2432 -31.2119 -46.3369 -60.0713c-9.75391 -39.6797 1.37988 -82.3232 30.5605 -117.937h271.276z" />
    <glyph glyph-name="uniF10F" unicode="&#xf10f;" 
d="M512 219.077l-46.3818 -5.13184c-2.14453 -6.75098 -4.80078 -13.3369 -7.95312 -19.71l29.7236 -36.9463l-54.7139 -54.8193l-36.4248 29.1846c-6.3125 -3.27344 -12.8467 -6.05664 -19.5547 -8.3291l-5.11523 -47.126l-77.4492 -0.0751953l-0.786133 7.1377
c-2.91602 -9.16602 -5.07129 -18.4678 -6.38184 -27.7842c-0.208984 -1.48633 -0.414062 -3.00879 -0.615234 -4.5625c-8.52637 -66.1426 -26.0381 -101.001 -52.0537 -103.604c-0.90918 -0.0908203 -1.81152 -0.135742 -2.7002 -0.135742
c-14.6904 0 -26.667 12.3809 -35.6406 36.8604c-6.23535 17.0137 -11.1436 39.7461 -13.8213 64.0088c-1.76465 15.9805 -5.98145 24.75 -9.21094 29.292c-0.46875 0.661133 -1.12109 0.996094 -1.9375 0.996094s-1.46777 -0.334961 -1.93848 -0.996094
c-3.22852 -4.54199 -7.44531 -13.3115 -9.20996 -29.292c-2.67676 -24.2627 -7.58594 -46.9951 -13.8213 -64.0088c-9.51562 -25.959 -22.4053 -38.3164 -38.3408 -36.7246c-26.0137 2.60254 -43.5283 37.4619 -52.0557 103.609
c-0.207031 1.61035 -0.418945 3.18164 -0.636719 4.71973c-3.72266 26.3594 -14.0518 52.5791 -29.873 75.8262c-25.0088 36.7422 -31.8242 82.2617 -18.2314 121.763c10.4492 30.3662 31.8965 52.7363 58.8359 61.376c47.9873 15.3896 87.8926 -2.75293 105.273 -13.124
c7.36523 4.39551 18.7881 10.1797 33.1455 14.2217c0.491211 1.05664 0.993164 2.1084 1.51172 3.15332l-29.6992 36.9727l54.7607 54.7744l36.4023 -29.2158c6.31445 3.26855 12.8516 6.04492 19.5674 8.3125l5.14648 47.127h77.4551l5.06641 -46.3936
c6.68164 -2.12891 13.1924 -4.75879 19.4844 -7.87305l36.9277 29.7402l54.8486 -54.6836l-29.1709 -36.4424c3.28027 -6.31055 6.06738 -12.8418 8.34082 -19.5518l47.2275 -5.09473v-77.4502zM292.107 148.409c19.6826 28.96 25.1455 64.5078 14.6123 95.0889
c-7.34375 21.3184 -21.7852 36.8262 -39.6211 42.5459c-48.2451 15.4707 -86.4502 -14.0293 -86.8311 -14.3291l-9.28418 -7.31738l-9.28418 7.31836c-1.52539 1.17871 -39.0811 29.6396 -86.8301 14.3281c-17.8447 -5.72363 -32.29 -21.2402 -39.6318 -42.5732
c-10.5312 -30.6016 -5.04785 -66.1621 14.665 -95.125c18.3926 -27.0244 30.4199 -57.6299 34.7764 -88.5068c0.235352 -1.65234 0.464844 -3.35059 0.688477 -5.08691c3.22461 -25.0205 7.97852 -45.7666 13.748 -59.9922
c4.58301 -11.2998 8.47949 -15.4277 10.3613 -16.8721c5.56738 6.07031 15.833 30.7607 20.5439 73.4473c1.98145 17.9639 6.88477 32.5576 14.5713 43.376c6.05957 8.52734 15.9248 13.6172 26.3906 13.6172c10.4668 0 20.333 -5.09082 26.3906 -13.6182
c7.6875 -10.8164 12.5908 -25.4111 14.5723 -43.375c4.71094 -42.6934 14.9805 -67.3848 20.5469 -73.4512c1.87012 1.44043 5.77246 5.56543 10.3584 16.876c5.76855 14.2246 10.5215 34.9717 13.748 59.9961c0.21582 1.66895 0.435547 3.2998 0.660156 4.89746
c4.35156 30.9268 16.4004 61.6172 34.8486 88.7559zM308.122 295.745c11.7881 -10.9805 21.0986 -25.4746 26.957 -42.4785c4.59766 -13.3496 6.85645 -27.3887 6.87793 -41.5439c20.7275 4.44531 36.3174 22.9023 36.3174 44.9395
c0 25.3447 -20.6191 45.9639 -45.9648 45.9639c-8.66992 0 -17.0098 -2.43066 -24.1875 -6.88086zM447.158 159.443l-25.626 31.8525l5.28809 8.94141c5.71973 9.67188 9.90723 20.0742 12.4473 30.918l2.41797 10.3213l40.2871 4.45703l-0.0273438 23.6611l-40.6455 4.3916
l-2.58008 10.0732c-2.76074 10.7832 -7.16699 21.0908 -13.0938 30.6396l-5.59082 9.00684l25.3428 31.6582l-16.7568 16.7051l-31.8545 -25.6553l-8.9502 5.30176c-9.57715 5.67383 -19.9121 9.84082 -30.7207 12.3867l-10.3193 2.43262l-4.40039 40.2949h-23.6572
l-4.43945 -40.6318l-10.0723 -2.57031c-10.8037 -2.75586 -21.124 -7.14941 -30.6777 -13.0557l-9.01172 -5.57227l-31.6182 25.376l-16.7275 -16.7334l25.6182 -31.8906l-0.733398 -1.23633c11.0352 -0.22168 22.8467 -1.94922 35.2002 -5.91016
c1.66602 -0.535156 3.31055 -1.12305 4.93457 -1.76074c13.8955 12.6709 32.0283 19.7754 51.1182 19.7754c41.8848 0 75.9609 -34.0752 75.9609 -75.9609c0 -39.8027 -30.7773 -72.5293 -69.7822 -75.6875c-3.79004 -16.6572 -10.6621 -32.8916 -20.4707 -47.752
l2.98242 -27.0713l23.6611 0.0214844l4.40918 40.6338l10.0684 2.5791c10.7871 2.7627 21.1045 7.16504 30.6631 13.084l9.00684 5.5752l31.6338 -25.3467z" />
    <glyph glyph-name="uniF10D" unicode="&#xf10d;" 
d="M328.595 424.1h108.038v-488.1h-361.266v488.1h108.038v23.9004h145.189v-23.9004zM213.405 418v-40.043h85.1895v40.043h-85.1895zM358.015 347.957h-204.029v-333.159h204.029v333.159zM406.634 -34v428.1h-78.0381v-16.1426h59.4189v-393.159h-264.028v393.159
h59.4189v16.1426h-78.0381v-428.1h301.267v0zM183.97 178v30h144.07v-30h-144.07zM183.97 116.25v30h144.07v-30h-144.07zM183.97 54.5098v30h144.07v-30h-144.07zM303.075 325.539l21.041 -21.3848l-70.7656 -69.626l-59.1748 40.625l16.9805 24.7324l38.7842 -26.627z" />
    <glyph glyph-name="uniF101" unicode="&#xf101;" 
d="M333.865 337.737h178.135v-130.495h-22.8574v-229.977h-466.286v229.978h-22.8564v130.495h178.135v68.9971h155.73v-68.998zM208.135 376.735v-38.9971h95.7305v38.9971h-95.7305zM52.8564 7.26562h406.286v199.977h-406.286v-199.977zM482 237.242v70.4951h-452
v-70.4951h452zM271 122.255h48.3818v-30h-48.3818v-48.3828h-30v48.3828h-48.3818v30h48.3818v48.3828h30v-48.3828z" />
    <glyph glyph-name="uniF118" unicode="&#xf118;" 
d="M511.987 237.451v0l0.000976562 -41.9229c-24.2832 -18.7373 -58.208 -33.333 -99.0146 -42.2432c-0.553711 -0.121094 -1.11621 -0.232422 -1.67188 -0.351562c-4.36914 -9.23828 -9.7002 -18.1592 -15.9746 -26.5996
c-12.0166 -16.1621 -20.1309 -33.9307 -24.1201 -52.8145c-1.80273 -8.52637 -3.36816 -17.9219 -4.6582 -27.9219c-9.01074 -69.9111 -27.3652 -106.738 -54.5518 -109.458c-0.928711 -0.0927734 -1.84961 -0.138672 -2.75879 -0.138672
c-15.2021 -0.00195312 -27.6562 12.9658 -37.0527 38.6035c-6.61133 18.041 -11.8184 42.1592 -14.6611 67.9141c-1.89844 17.2139 -6.47168 26.7041 -9.97363 31.6338c-0.862305 1.21289 -2.02734 1.4668 -2.85352 1.4668s-1.99121 -0.253906 -2.85156 -1.4668
c-3.50293 -4.92871 -8.07617 -14.4189 -9.97656 -31.6338c-2.84277 -25.7559 -8.04883 -49.874 -14.6611 -67.9141c-9.95996 -27.1699 -23.3584 -40.1055 -39.8115 -38.4648c-27.1865 2.71875 -45.54 39.5469 -54.5518 109.458
c-1.28809 9.99609 -2.85645 19.3916 -4.65918 27.9268c-3.99316 18.8984 -12.0967 36.6504 -24.082 52.7598c-3.49023 4.69238 -6.68359 9.53418 -9.58887 14.4951c-8.52441 -3.27344 -16.4092 -6.75586 -23.5117 -10.2051
c-30.666 -14.8936 -52.7676 -31.749 -60.9902 -38.4287v37.4297c11.8799 8.22168 27.8564 18.1914 47.041 27.5732c8.2627 4.04004 16.5518 7.6748 24.8496 10.9268c-10.2285 29.3662 -11.1357 60.9209 -1.83105 89.9277c10.7031 33.3633 33.6113 57.876 62.8525 67.2539
c51.1992 16.4189 93.6934 -3.27441 111.771 -14.1719c18.0771 10.8965 60.5703 30.5898 111.771 14.1719c29.2344 -9.375 52.1396 -33.8799 62.8447 -67.2324c7.38672 -23.0078 8.34961 -47.626 3.32812 -71.4834c41.3584 11.3008 73.3145 29.4199 89.3467 50.9102z
M371.251 144.23c0.597656 0.803711 1.17773 1.61621 1.75391 2.42871c-51.0039 -5.94922 -106.734 -3.38672 -163.474 7.68555c-34.3145 6.69336 -67.166 3.30273 -95.6084 -4.09473c1.35059 -2.0498 2.76465 -4.07129 4.24414 -6.06152
c14.5918 -19.6104 24.4717 -41.2998 29.3662 -64.4678c1.96777 -9.31348 3.66992 -19.5049 5.06152 -30.291c7.92188 -61.458 21.7383 -80.0176 26.6553 -82.9961c2.26758 2.24707 6.97949 9.16992 11.9346 24.7881c4.78711 15.0928 8.64551 34.4775 10.8652 54.584
c2.0918 18.9541 7.25098 34.3369 15.3359 45.7168c6.26855 8.82422 16.4775 14.0928 27.3076 14.0928c10.832 0.000976562 21.041 -5.2666 27.3105 -14.0928c8.08398 -11.3818 13.2432 -26.7627 15.3359 -45.7158c2.21777 -20.1064 6.07715 -39.4912 10.8643 -54.584
c4.95508 -15.6191 9.66602 -22.542 11.9346 -24.7871c4.91602 2.97656 18.7344 21.5371 26.6562 82.9951c1.3916 10.791 3.09375 20.9814 5.05957 30.2861c4.8916 23.1484 14.7812 44.8535 29.3965 64.5137zM389.649 179.328
c7.66797 22.8857 8.25781 47.2266 1.10156 69.5283c-7.70996 24.0186 -23.5439 41.4531 -43.4424 47.834c-21.3574 6.84961 -43.3994 6.43262 -65.5127 -1.23926c-17.04 -5.91113 -27.7568 -14.1309 -27.8633 -14.2129l-9.36426 -7.38086l-9.1582 7.41797
c-0.0576172 0.0439453 -10.7744 8.26367 -27.8135 14.1738c-11.6875 4.05566 -23.3574 6.08301 -34.9131 6.08301c-10.3105 0 -20.5293 -1.6123 -30.5996 -4.84277c-19.9043 -6.38281 -35.7412 -23.8242 -43.4482 -47.8516
c-7.3252 -22.8369 -6.52539 -47.8115 1.67871 -71.1709c39.3154 11.1221 78.3232 13.2734 114.964 6.12207c74.6729 -14.5693 133.961 -11.2861 174.371 -4.46094zM229.697 385.603v62.3975h29.998v-62.3975h-29.998zM321.92 362.641l-25.9346 15.0811l31.3682 53.9443
l25.9346 -15.0811zM171.98 362.632l-31.3682 53.9443l25.9346 15.0801l31.3682 -53.9434z" />
    <glyph glyph-name="uniF123" unicode="&#xf123;" 
d="M412.752 396.637c17.5518 -31.3828 44.4512 -47.2959 79.9492 -47.2959h-0.000976562v-29.9824c-17.252 0 -32.4658 -3.77051 -45.5703 -11.2363c10.8799 -48.168 -0.785156 -100.868 -32.1738 -143.103c-14.8076 -19.916 -24.8154 -41.8301 -29.7471 -65.1377
c-2.20117 -10.4502 -4.11133 -21.9033 -5.67383 -34.0312c-10.6914 -82.9375 -31.9502 -126.575 -63.1865 -129.7c-0.99707 -0.100586 -1.98535 -0.150391 -2.96387 -0.150391c-16.9688 0 -31.0615 14.9951 -41.9258 44.6357
c-7.91895 21.6045 -14.1572 50.5283 -17.5654 81.4424c-2.37598 21.4961 -8.18164 33.4854 -12.6338 39.7568c-1.91797 2.69824 -4.60156 3.10059 -6.03125 3.10059c-1.42578 -0.000976562 -4.10352 -0.40332 -6.02051 -3.10352
c-4.4502 -6.27051 -10.2568 -18.2598 -12.6328 -39.7588c-3.41406 -30.9189 -9.65332 -59.8418 -17.5684 -81.4375c-10.8604 -29.6377 -24.957 -44.6338 -41.9229 -44.6348c-0.978516 0 -1.96582 0.0498047 -2.96387 0.150391
c-31.2363 3.12402 -52.4951 46.7617 -63.1865 129.7c-1.5918 12.2852 -3.50488 23.7412 -5.68457 34.04c-4.92578 23.3154 -14.917 45.208 -29.6934 65.0762c-34.4785 46.3379 -45.1729 104.85 -28.6035 156.513c12.6318 39.3887 39.6045 68.3076 74.001 79.3418
c62.4443 20.0137 113.93 -5.20215 134.283 -17.8398c19.0576 11.835 65.4355 34.7061 122.538 21.1113c5.14258 11.4287 8.28418 27.2256 8.28418 43.9062h29.9043c0.0283203 -0.256836 2.84766 -26.4365 16.7891 -51.3633zM390.895 182.908
c22.4219 30.168 32.8174 66.5449 29.707 101.31c-2.79199 -3.75586 -5.41211 -7.7998 -7.84668 -12.1523c-13.9404 -24.9258 -16.7617 -50.6328 -16.7891 -50.8896l-29.9043 -0.0380859c0 91.0518 -93.3496 98.0518 -97.3232 98.2383l0.0400391 29.9541
c2.51758 0.119141 41.668 2.38965 69.5244 27.8848c-19.5791 2.57617 -39.4844 0.408203 -59.4307 -6.54785c-21.0469 -7.33984 -34.2627 -17.5078 -34.3945 -17.6104l-9.28027 -7.31445l-9.24023 7.3457c-0.0908203 0.0712891 -13.3066 10.2383 -34.3555 17.5791
c-27.4883 9.58496 -54.9043 10.126 -81.4912 1.60547c-25.0635 -8.04004 -44.9678 -29.8906 -54.6074 -59.9482c-13.6191 -42.4688 -4.60547 -90.8662 24.1113 -129.461c17.3779 -23.3662 29.1426 -49.1943 34.9697 -76.7676
c2.34375 -11.0703 4.3916 -23.3193 6.08691 -36.4023c10.4453 -81.0361 28.957 -102 35.9111 -103.621c1.4502 0.922852 8.26562 6.36328 16.2002 30.4209c6.19336 18.7793 11.1641 43.2383 13.9941 68.8721c2.47363 22.3867 8.52539 40.4961 17.9863 53.8242
c6.99219 9.8457 18.3779 15.7246 30.459 15.7275h0.0107422c12.083 0 23.4717 -5.87598 30.4707 -15.7188c9.46582 -13.3359 15.5176 -31.4443 17.9932 -53.8311c2.82617 -25.6328 7.79297 -50.0918 13.9893 -68.876c7.9248 -24.0244 14.7344 -29.4814 16.1973 -30.416
c6.59863 1.65234 25.5381 23.0898 35.917 103.607c1.66309 12.9121 3.70703 25.1582 6.0752 36.3945c5.83398 27.5781 17.6162 53.4238 35.0195 76.8311zM386.058 285.749c11.877 21.5957 27.5283 37.9082 46.3916 48.6006
c-18.8623 10.6934 -34.5137 27.0059 -46.3916 48.6016c-0.891602 1.62305 -1.74609 3.24512 -2.5625 4.86328c-12.7412 -25.8086 -33.1348 -41.5742 -51.3447 -51.0586c-1.61523 -0.84082 -3.2334 -1.64258 -4.84277 -2.40527
c1.61035 -0.761719 3.22754 -1.56348 4.84277 -2.4043c18.21 -9.48535 38.6035 -25.25 51.3447 -51.0596c0.816406 1.61719 1.6709 3.23926 2.5625 4.8623z" />
    <glyph glyph-name="uniF127" unicode="&#xf127;" 
d="M481.692 354.381c17.9326 -55.8682 6.37695 -119.167 -30.9121 -169.323c-16.2637 -21.875 -27.25 -45.9404 -32.6562 -71.5293c-2.40234 -11.3711 -4.49121 -23.8887 -6.20703 -37.2021c-5.15332 -39.9775 -12.7432 -72.0635 -22.5576 -95.3662
c-11.7588 -27.915 -26.9277 -42.9902 -45.085 -44.8057c-1.03223 -0.102539 -2.05664 -0.154297 -3.07031 -0.154297c-17.874 -0.000976562 -32.8096 16.04 -44.4287 47.7441c-8.5918 23.4365 -15.3633 54.8428 -19.0703 88.4316
c-2.07227 18.7832 -6.91895 33.9912 -14.0146 43.9805c-2.54102 3.57715 -6.22461 3.96289 -7.68945 3.96289s-5.14844 -0.385742 -7.68945 -3.96191c-7.0957 -9.99023 -11.9424 -25.1982 -14.0146 -43.9805c-3.70703 -33.5898 -10.4785 -64.9951 -19.0703 -88.4316
c-11.6191 -31.7031 -26.5566 -47.7432 -44.4287 -47.7441c-1.01465 0 -2.03613 0.0507812 -3.07031 0.154297c-18.1572 1.81543 -33.3262 16.8906 -45.085 44.8057c-9.81543 23.3027 -17.4043 55.3887 -22.5576 95.3662c-1.71582 13.3115 -3.80469 25.8301 -6.20801 37.208
c-5.41016 25.6084 -16.3809 49.6504 -32.6074 71.46c-37.3213 50.1562 -48.8984 113.467 -30.9717 169.354c13.6328 42.501 42.708 73.6934 79.7725 85.5781c68.3076 21.9062 124.481 -6.25879 145.93 -19.7441c21.4453 13.4844 77.6182 41.6504 145.93 19.7441
c37.0537 -11.8818 66.125 -43.0615 79.7627 -85.5469zM426.765 202.912c31.54 42.4238 41.4209 95.6289 26.4346 142.322c-10.6484 33.1729 -32.666 57.3008 -60.4062 66.1953h-0.000976562c-29.2949 9.39551 -59.501 8.79395 -89.7812 -1.78711
c-23.1279 -8.08203 -37.6406 -19.2607 -37.7852 -19.373l-9.24805 -7.19629l-9.24023 7.22461c-0.108398 0.0839844 -14.6211 11.2627 -37.749 19.3447c-30.2803 10.5801 -60.4873 11.1826 -89.7812 1.78711c-27.749 -8.89746 -49.7686 -33.0352 -60.4141 -66.2217
c-14.9834 -46.7109 -5.08398 -99.9268 26.4834 -142.352c18.8232 -25.3018 31.5674 -53.2725 37.877 -83.1387c2.56738 -12.1543 4.79102 -25.4678 6.6084 -39.5674c10.4893 -81.373 30.0352 -112.784 40.7529 -114.198c2.25098 0.796875 9.95215 8.19922 18.2305 32.6875
c7.01465 20.752 12.627 48.0332 15.8037 76.8184c2.66797 24.1719 9.18262 43.6953 19.3643 58.0283c7.36621 10.3701 19.3613 16.5586 32.0869 16.5586s24.7207 -6.18945 32.0859 -16.5576c10.1816 -14.332 16.6973 -33.8555 19.3643 -58.0283
c3.17676 -28.7852 8.78906 -56.0664 15.8047 -76.8184c8.27832 -24.4883 15.9785 -31.8906 18.2295 -32.6875c10.7188 1.41406 30.2637 32.8252 40.7529 114.198c1.81738 14.1025 4.04102 27.4141 6.60742 39.5615c6.30566 29.8418 19.0635 57.834 37.9199 83.1992z" />
  </font>
</defs></svg>
